# device: Atmel-maXTouch-Touchpad
# bit: 0B 00 00 00 00 00 00 00
# key: 00 00 00 00 00 00 00 00 00 00 00 00 00 00 00 00 00 00 00 00 00 00 00 00 00 00 00 00 00 00 00 00 00 00 01 00 00 00 00 00 20 E5 00 00 00 00 00 00 00 00 00 00 00 00 00 00 00 00 00 00 00 00 00 00 00 00 00 00 00 00 00 00 00 00 00 00 00 00 00 00 00 00 00 00 00 00 00 00 00 00 00 00 00 00 00 00
# rel: 00 00 00 00 00 00 00 00
# abs: 03 00 00 01 00 80 61 06
# led: 00 00 00 00 00 00 00 00
# prp: 05 00 00 00 00 00 00 00
# absinfo: 0 0 2039 0 0 20
# absinfo: 1 0 1359 0 0 20
# absinfo: 24 0 255 0 0 0
# absinfo: 47 0 9 0 0 0
# absinfo: 48 0 1878 0 0 0
# absinfo: 53 0 2039 0 0 20
# absinfo: 54 0 1359 0 0 20
# absinfo: 57 0 65535 0 0 0
# absinfo: 58 0 255 0 0 0
E: 15151.926897 0003 002f 0
E: 15151.926897 0003 0030 220
E: 15151.926897 0003 0031 0
E: 15151.926897 0003 0032 0
E: 15151.926897 0003 0033 0
E: 15151.926897 0003 0034 0
E: 15151.926897 0003 0035 476
E: 15151.926897 0003 0036 1334
E: 15151.926897 0003 0037 0
E: 15151.926897 0003 0038 0
E: 15151.926897 0003 0039 1957
E: 15151.926897 0003 003a 38
E: 15151.926897 0003 003b 0
E: 15151.926897 0003 002f 1
E: 15151.926897 0003 0039 -1
E: 15151.926897 0003 002f 2
E: 15151.926897 0003 0039 -1
E: 15151.926897 0003 002f 3
E: 15151.926897 0003 0039 -1
E: 15151.926897 0003 002f 4
E: 15151.926897 0003 0039 -1
E: 15151.926897 0003 002f 5
E: 15151.926897 0003 0039 -1
E: 15151.926897 0003 002f 6
E: 15151.926897 0003 0039 -1
E: 15151.926897 0003 002f 7
E: 15151.926897 0003 0039 -1
E: 15151.926897 0003 002f 8
E: 15151.926897 0003 0039 -1
E: 15151.926897 0003 002f 9
E: 15151.926897 0003 0039 -1
E: 15151.926897 0003 002f 0
E: 15151.926897 0001 0145 1
E: 15151.926897 0001 014a 1
E: 15151.926897 0000 0000 0
E: 15151.934569 0003 003a 39
E: 15151.934572 0003 002f 1
E: 15151.934572 0003 0039 1958
E: 15151.934573 0003 0035 687
E: 15151.934574 0003 0036 975
E: 15151.934574 0003 003a 40
E: 15151.934575 0003 0030 220
E: 15151.934576 0001 0145 0
E: 15151.934577 0001 014d 1
E: 15151.934579 0003 0018 39
E: 15151.934579 0000 0000 0
E: 15151.941503 0003 002f 0
E: 15151.941504 0003 003a 41
E: 15151.941506 0003 002f 1
E: 15151.941506 0003 003a 42
E: 15151.941509 0003 0018 41
E: 15151.941510 0000 0000 0
E: 15151.948607 0003 002f 0
E: 15151.948607 0003 003a 42
E: 15151.948609 0003 002f 1
E: 15151.948609 0003 003a 43
E: 15151.948611 0003 0018 42
E: 15151.948612 0000 0000 0
E: 15151.955836 0003 002f 0
E: 15151.955837 0003 0036 1333
E: 15151.955837 0003 003a 45
E: 15151.955839 0003 002f 1
E: 15151.955840 0003 003a 45
E: 15151.955843 0003 0001 1333
E: 15151.955843 0003 0018 45
E: 15151.955844 0000 0000 0
E: 15151.962973 0003 002f 0
E: 15151.962973 0003 003a 46
E: 15151.962975 0003 002f 1
E: 15151.962975 0003 0036 974
E: 15151.962976 0003 003a 44
E: 15151.962978 0003 0018 46
E: 15151.962978 0000 0000 0
E: 15151.970167 0003 002f 0
E: 15151.970168 0003 0036 1332
E: 15151.970168 0003 003a 44
E: 15151.970172 0003 0001 1332
E: 15151.970172 0003 0018 44
E: 15151.970173 0000 0000 0
E: 15151.977484 0003 003a 48
E: 15151.977487 0003 002f 1
E: 15151.977487 0003 0036 973
E: 15151.977488 0003 003a 43
E: 15151.977492 0003 0018 48
E: 15151.977493 0000 0000 0
E: 15151.984498 0003 002f 0
E: 15151.984498 0003 0036 1331
E: 15151.984499 0003 003a 52
E: 15151.984501 0003 002f 1
E: 15151.984501 0003 0036 972
E: 15151.984501 0003 003a 45
E: 15151.984504 0003 0001 1331
E: 15151.984505 0003 0018 52
E: 15151.984505 0000 0000 0
E: 15151.991470 0003 002f 0
E: 15151.991472 0003 0035 475
E: 15151.991472 0003 0036 1329
E: 15151.991475 0003 002f 1
E: 15151.991475 0003 0036 970
E: 15151.991476 0003 003a 44
E: 15151.991479 0003 0000 475
E: 15151.991479 0003 0001 1329
E: 15151.991480 0000 0000 0
E: 15151.998282 0003 002f 0
E: 15151.998284 0003 0036 1327
E: 15151.998285 0003 0030 254
E: 15151.998286 0003 002f 1
E: 15151.998287 0003 0035 688
E: 15151.998287 0003 0036 968
E: 15151.998288 0003 003a 48
E: 15151.998291 0003 0001 1327
E: 15151.998292 0000 0000 0
E: 15152.005090 0003 002f 0
E: 15152.005092 0003 0036 1324
E: 15152.005092 0003 003a 58
E: 15152.005094 0003 002f 1
E: 15152.005095 0003 0036 965
E: 15152.005096 0003 0030 254
E: 15152.005099 0003 0001 1324
E: 15152.005099 0003 0018 58
E: 15152.005100 0000 0000 0
E: 15152.011870 0003 002f 0
E: 15152.011871 0003 0035 474
E: 15152.011872 0003 0036 1320
E: 15152.011872 0003 003a 56
E: 15152.011875 0003 002f 1
E: 15152.011875 0003 0036 961
E: 15152.011876 0003 003a 51
E: 15152.011879 0003 0000 474
E: 15152.011880 0003 0001 1320
E: 15152.011880 0003 0018 56
E: 15152.011881 0000 0000 0
E: 15152.018693 0003 002f 0
E: 15152.018695 0003 0035 473
E: 15152.018695 0003 0036 1315
E: 15152.018696 0003 003a 59
E: 15152.018698 0003 002f 1
E: 15152.018698 0003 0036 956
E: 15152.018701 0003 0000 473
E: 15152.018702 0003 0001 1315
E: 15152.018702 0003 0018 59
E: 15152.018703 0000 0000 0
E: 15152.025463 0003 002f 0
E: 15152.025465 0003 0035 472
E: 15152.025465 0003 0036 1309
E: 15152.025466 0003 003a 56
E: 15152.025466 0003 0030 220
E: 15152.025468 0003 002f 1
E: 15152.025468 0003 0035 689
E: 15152.025469 0003 0036 950
E: 15152.025469 0003 003a 49
E: 15152.025473 0003 0000 472
E: 15152.025473 0003 0001 1309
E: 15152.025474 0003 0018 56
E: 15152.025474 0000 0000 0
E: 15152.032251 0003 002f 0
E: 15152.032252 0003 0035 470
E: 15152.032253 0003 0036 1304
E: 15152.032254 0003 003a 54
E: 15152.032254 0003 0030 254
E: 15152.032256 0003 002f 1
E: 15152.032256 0003 0036 943
E: 15152.032259 0003 0000 470
E: 15152.032260 0003 0001 1304
E: 15152.032260 0003 0018 54
E: 15152.032261 0000 0000 0
E: 15152.038883 0003 002f 0
E: 15152.038884 0003 0035 468
E: 15152.038885 0003 0036 1295
E: 15152.038885 0003 003a 55
E: 15152.038886 0003 0030 220
E: 15152.038888 0003 002f 1
E: 15152.038888 0003 0036 937
E: 15152.038888 0003 003a 50
E: 15152.038889 0003 0030 220
E: 15152.038892 0003 0000 468
E: 15152.038892 0003 0001 1295
E: 15152.038893 0003 0018 55
E: 15152.038894 0000 0000 0
E: 15152.047125 0003 002f 0
E: 15152.047126 0003 0035 467
E: 15152.047126 0003 0036 1284
E: 15152.047127 0003 003a 56
E: 15152.047127 0003 0030 254
E: 15152.047129 0003 002f 1
E: 15152.047129 0003 0036 930
E: 15152.047132 0003 0000 467
E: 15152.047133 0003 0001 1284
E: 15152.047133 0003 0018 56
E: 15152.047134 0000 0000 0
E: 15152.055239 0003 002f 0
E: 15152.055241 0003 0035 466
E: 15152.055242 0003 0036 1274
E: 15152.055242 0003 0030 286
E: 15152.055244 0003 002f 1
E: 15152.055244 0003 0035 690
E: 15152.055245 0003 0036 922
E: 15152.055245 0003 003a 54
E: 15152.055249 0003 0000 466
E: 15152.055249 0003 0001 1274
E: 15152.055250 0000 0000 0
E: 15152.066913 0003 002f 0
E: 15152.066915 0003 0036 1265
E: 15152.066915 0003 003a 57
E: 15152.066916 0003 0030 220
E: 15152.066918 0003 002f 1
E: 15152.066918 0003 0036 909
E: 15152.066922 0003 0001 1265
E: 15152.066923 0003 0018 57
E: 15152.066924 0000 0000 0
E: 15152.073626 0003 002f 0
E: 15152.073627 0003 0035 465
E: 15152.073628 0003 0036 1258
E: 15152.073628 0003 003a 61
E: 15152.073630 0003 002f 1
E: 15152.073631 0003 0036 901
E: 15152.073631 0003 003a 53
E: 15152.073634 0003 0000 465
E: 15152.073635 0003 0001 1258
E: 15152.073635 0003 0018 61
E: 15152.073636 0000 0000 0
E: 15152.080462 0003 002f 0
E: 15152.080464 0003 0036 1250
E: 15152.080465 0003 003a 58
E: 15152.080467 0003 002f 1
E: 15152.080467 0003 0036 891
E: 15152.080468 0003 003a 50
E: 15152.080471 0003 0001 1250
E: 15152.080471 0003 0018 58
E: 15152.080472 0000 0000 0
E: 15152.087242 0003 002f 0
E: 15152.087243 0003 0035 464
E: 15152.087244 0003 0036 1245
E: 15152.087246 0003 002f 1
E: 15152.087246 0003 0035 691
E: 15152.087247 0003 0036 883
E: 15152.087247 0003 003a 51
E: 15152.087250 0003 0000 464
E: 15152.087251 0003 0001 1245
E: 15152.087252 0000 0000 0
E: 15152.094046 0003 002f 0
E: 15152.094047 0003 0036 1240
E: 15152.094048 0003 003a 54
E: 15152.094050 0003 002f 1
E: 15152.094050 0003 0036 876
E: 15152.094051 0003 003a 48
E: 15152.094054 0003 0001 1240
E: 15152.094055 0003 0018 54
E: 15152.094056 0000 0000 0
E: 15152.100835 0003 002f 0
E: 15152.100837 0003 0035 463
E: 15152.100837 0003 0036 1234
E: 15152.100838 0003 003a 58
E: 15152.100840 0003 002f 1
E: 15152.100840 0003 0036 868
E: 15152.100841 0003 003a 50
E: 15152.100844 0003 0000 463
E: 15152.100845 0003 0001 1234
E: 15152.100845 0003 0018 58
E: 15152.100846 0000 0000 0
E: 15152.107531 0003 002f 0
E: 15152.107532 0003 0035 461
E: 15152.107533 0003 0036 1226
E: 15152.107533 0003 003a 55
E: 15152.107535 0003 002f 1
E: 15152.107536 0003 0036 863
E: 15152.107536 0003 003a 51
E: 15152.107539 0003 0000 461
E: 15152.107539 0003 0001 1226
E: 15152.107540 0003 0018 55
E: 15152.107540 0000 0000 0
E: 15152.114283 0003 002f 0
E: 15152.114284 0003 0035 462
E: 15152.114285 0003 0036 1221
E: 15152.114285 0003 003a 54
E: 15152.114286 0003 002f 1
E: 15152.114287 0003 0035 692
E: 15152.114287 0003 0036 858
E: 15152.114290 0003 0000 462
E: 15152.114290 0003 0001 1221
E: 15152.114291 0003 0018 54
E: 15152.114291 0000 0000 0
E: 15152.121242 0003 002f 0
E: 15152.121244 0003 0036 1217
E: 15152.121245 0003 003a 57
E: 15152.121247 0003 002f 1
E: 15152.121247 0003 0035 691
E: 15152.121248 0003 0036 852
E: 15152.121248 0003 0030 254
E: 15152.121252 0003 0001 1217
E: 15152.121252 0003 0018 57
E: 15152.121253 0000 0000 0
E: 15152.128022 0003 002f 0
E: 15152.128024 0003 0036 1213
E: 15152.128024 0003 003a 55
E: 15152.128025 0003 0030 254
E: 15152.128027 0003 002f 1
E: 15152.128027 0003 0035 692
E: 15152.128027 0003 0036 847
E: 15152.128031 0003 0001 1213
E: 15152.128032 0003 0018 55
E: 15152.128032 0000 0000 0
E: 15152.134823 0003 002f 0
E: 15152.134825 0003 0036 1209
E: 15152.134826 0003 003a 56
E: 15152.134828 0003 002f 1
E: 15152.134828 0003 0036 842
E: 15152.134829 0003 003a 53
E: 15152.134832 0003 0001 1209
E: 15152.134832 0003 0018 56
E: 15152.134833 0000 0000 0
E: 15152.141569 0003 002f 0
E: 15152.141570 0003 0036 1203
E: 15152.141570 0003 003a 60
E: 15152.141572 0003 002f 1
E: 15152.141573 0003 0035 691
E: 15152.141573 0003 0036 837
E: 15152.141574 0003 003a 51
E: 15152.141577 0003 0001 1203
E: 15152.141578 0003 0018 60
E: 15152.141578 0000 0000 0
E: 15152.148328 0003 002f 0
E: 15152.148329 0003 0035 461
E: 15152.148329 0003 0036 1199
E: 15152.148330 0003 003a 55
E: 15152.148331 0003 002f 1
E: 15152.148332 0003 0035 692
E: 15152.148332 0003 0036 831
E: 15152.148333 0003 003a 52
E: 15152.148335 0003 0000 461
E: 15152.148335 0003 0001 1199
E: 15152.148336 0003 0018 55
E: 15152.148337 0000 0000 0
E: 15152.155136 0003 002f 0
E: 15152.155137 0003 0035 462
E: 15152.155137 0003 0036 1194
E: 15152.155138 0003 0030 220
E: 15152.155139 0003 002f 1
E: 15152.155140 0003 0036 826
E: 15152.155140 0003 003a 54
E: 15152.155142 0003 0000 462
E: 15152.155143 0003 0001 1194
E: 15152.155144 0000 0000 0
E: 15152.161887 0003 002f 0
E: 15152.161888 0003 0036 1189
E: 15152.161889 0003 003a 58
E: 15152.161889 0003 0030 254
E: 15152.161891 0003 002f 1
E: 15152.161891 0003 0036 821
E: 15152.161891 0003 003a 52
E: 15152.161894 0003 0001 1189
E: 15152.161894 0003 0018 58
E: 15152.161895 0000 0000 0
E: 15152.168715 0003 002f 0
E: 15152.168716 0003 0035 461
E: 15152.168716 0003 0036 1184
E: 15152.168717 0003 003a 55
E: 15152.168718 0003 002f 1
E: 15152.168719 0003 0035 693
E: 15152.168719 0003 0036 815
E: 15152.168720 0003 003a 51
E: 15152.168720 0003 0030 220
E: 15152.168722 0003 0000 461
E: 15152.168723 0003 0001 1184
E: 15152.168723 0003 0018 55
E: 15152.168724 0000 0000 0
E: 15152.175548 0003 002f 0
E: 15152.175548 0003 0036 1178
E: 15152.175549 0003 003a 58
E: 15152.175549 0003 0030 220
E: 15152.175551 0003 002f 1
E: 15152.175551 0003 0035 692
E: 15152.175551 0003 0036 809
E: 15152.175552 0003 003a 55
E: 15152.175552 0003 0030 254
E: 15152.175555 0003 0001 1178
E: 15152.175555 0003 0018 58
E: 15152.175556 0000 0000 0
E: 15152.182506 0003 002f 0
E: 15152.182508 0003 0035 460
E: 15152.182509 0003 0036 1172
E: 15152.182509 0003 003a 57
E: 15152.182511 0003 002f 1
E: 15152.182512 0003 0036 803
E: 15152.182512 0003 003a 50
E: 15152.182513 0003 0030 220
E: 15152.182516 0003 0000 460
E: 15152.182516 0003 0001 1172
E: 15152.182517 0003 0018 57
E: 15152.182517 0000 0000 0
E: 15152.190833 0003 002f 0
E: 15152.190834 0003 0036 1166
E: 15152.190835 0003 003a 61
E: 15152.190835 0003 0030 254
E: 15152.190837 0003 002f 1
E: 15152.190837 0003 0035 691
E: 15152.190838 0003 0036 794
E: 15152.190838 0003 003a 53
E: 15152.190839 0003 0030 254
E: 15152.190842 0003 0001 1166
E: 15152.190843 0003 0018 61
E: 15152.190844 0000 0000 0
E: 15152.199180 0003 002f 0
E: 15152.199182 0003 0035 459
E: 15152.199182 0003 0036 1157
E: 15152.199183 0003 003a 59
E: 15152.199185 0003 002f 1
E: 15152.199185 0003 0036 785
E: 15152.199186 0003 003a 52
E: 15152.199189 0003 0000 459
E: 15152.199189 0003 0001 1157
E: 15152.199190 0003 0018 59
E: 15152.199190 0000 0000 0
E: 15152.210645 0003 002f 0
E: 15152.210646 0003 0036 1149
E: 15152.210646 0003 003a 61
E: 15152.210647 0003 002f 1
E: 15152.210647 0003 0036 777
E: 15152.210647 0003 003a 55
E: 15152.210647 0003 0030 220
E: 15152.210648 0003 0001 1149
E: 15152.210648 0003 0018 61
E: 15152.210648 0000 0000 0
E: 15152.217611 0003 002f 0
E: 15152.217613 0003 0035 458
E: 15152.217614 0003 0036 1141
E: 15152.217614 0003 003a 59
E: 15152.217615 0003 0030 220
E: 15152.217618 0003 002f 1
E: 15152.217618 0003 0036 771
E: 15152.217619 0003 003a 54
E: 15152.217623 0003 0000 458
E: 15152.217624 0003 0001 1141
E: 15152.217625 0003 0018 59
E: 15152.217626 0000 0000 0
E: 15152.224376 0003 002f 0
E: 15152.224377 0003 0035 459
E: 15152.224377 0003 0036 1133
E: 15152.224378 0003 003a 61
E: 15152.224379 0003 002f 1
E: 15152.224379 0003 0036 765
E: 15152.224380 0003 0000 459
E: 15152.224381 0003 0001 1133
E: 15152.224381 0003 0018 61
E: 15152.224381 0000 0000 0
E: 15152.231210 0003 002f 0
E: 15152.231211 0003 0036 1128
E: 15152.231224 0003 002f 1
E: 15152.231224 0003 0035 690
E: 15152.231225 0003 0036 760
E: 15152.231225 0003 003a 55
E: 15152.231228 0003 0001 1128
E: 15152.231229 0000 0000 0
E: 15152.238936 0003 002f 0
E: 15152.238938 0003 0036 1124
E: 15152.238942 0003 002f 1
E: 15152.238942 0003 0036 756
E: 15152.238943 0003 003a 53
E: 15152.238948 0003 0001 1124
E: 15152.238949 0000 0000 0
E: 15152.245702 0003 002f 0
E: 15152.245704 0003 0035 458
E: 15152.245704 0003 0036 1119
E: 15152.245705 0003 003a 59
E: 15152.245706 0003 002f 1
E: 15152.245707 0003 0036 751
E: 15152.245707 0003 003a 55
E: 15152.245709 0003 0000 458
E: 15152.245709 0003 0001 1119
E: 15152.245710 0003 0018 59
E: 15152.245710 0000 0000 0
E: 15152.252507 0003 002f 0
E: 15152.252508 0003 0036 1115
E: 15152.252509 0003 002f 1
E: 15152.252509 0003 0035 691
E: 15152.252509 0003 0036 747
E: 15152.252510 0003 003a 51
E: 15152.252511 0003 0001 1115
E: 15152.252511 0000 0000 0
E: 15152.259426 0003 002f 0
E: 15152.259428 0003 0035 457
E: 15152.259429 0003 0036 1113
E: 15152.259429 0003 003a 58
E: 15152.259432 0003 002f 1
E: 15152.259432 0003 0035 692
E: 15152.259433 0003 0036 743
E: 15152.259437 0003 0000 457
E: 15152.259438 0003 0001 1113
E: 15152.259439 0003 0018 58
E: 15152.259440 0000 0000 0
E: 15152.266206 0003 002f 0
E: 15152.266207 0003 0036 1111
E: 15152.266208 0003 003a 60
E: 15152.266210 0003 002f 1
E: 15152.266210 0003 0036 741
E: 15152.266211 0003 003a 52
E: 15152.266215 0003 0001 1111
E: 15152.266216 0003 0018 60
E: 15152.266217 0000 0000 0
E: 15152.273185 0003 002f 0
E: 15152.273185 0003 0035 458
E: 15152.273186 0003 0036 1109
E: 15152.273187 0003 002f 1
E: 15152.273187 0003 0035 691
E: 15152.273187 0003 0036 739
E: 15152.273187 0003 003a 57
E: 15152.273189 0003 0000 458
E: 15152.273189 0003 0001 1109
E: 15152.273190 0000 0000 0
E: 15152.279881 0003 002f 0
E: 15152.279882 0003 0036 1107
E: 15152.279882 0003 003a 55
E: 15152.279883 0003 002f 1
E: 15152.279884 0003 0036 737
E: 15152.279884 0003 003a 54
E: 15152.279886 0003 0001 1107
E: 15152.279886 0003 0018 55
E: 15152.279887 0000 0000 0
E: 15152.286767 0003 002f 0
E: 15152.286768 0003 0036 1106
E: 15152.286768 0003 003a 61
E: 15152.286769 0003 002f 1
E: 15152.286769 0003 0036 736
E: 15152.286769 0003 003a 56
E: 15152.286770 0003 0001 1106
E: 15152.286770 0003 0018 61
E: 15152.286782 0000 0000 0
E: 15152.293559 0003 002f 0
E: 15152.293560 0003 0036 1105
E: 15152.293560 0003 003a 58
E: 15152.293561 0003 002f 1
E: 15152.293562 0003 0036 735
E: 15152.293562 0003 003a 50
E: 15152.293563 0003 0001 1105
E: 15152.293564 0003 0018 58
E: 15152.293564 0000 0000 0
E: 15152.300431 0003 002f 0
E: 15152.300432 0003 0036 1104
E: 15152.300432 0003 003a 60
E: 15152.300434 0003 002f 1
E: 15152.300434 0003 0036 733
E: 15152.300435 0003 003a 54
E: 15152.300437 0003 0001 1104
E: 15152.300438 0003 0018 60
E: 15152.300438 0000 0000 0
E: 15152.307321 0003 002f 0
E: 15152.307323 0003 0036 1103
E: 15152.307324 0003 003a 61
E: 15152.307328 0003 002f 1
E: 15152.307329 0003 0036 732
E: 15152.307329 0003 003a 55
E: 15152.307334 0003 0001 1103
E: 15152.307335 0003 0018 61
E: 15152.307336 0000 0000 0
E: 15152.314240 0003 002f 0
E: 15152.314241 0003 0036 1102
E: 15152.314241 0003 003a 59
E: 15152.314243 0003 002f 1
E: 15152.314243 0003 003a 54
E: 15152.314245 0003 0001 1102
E: 15152.314245 0003 0018 59
E: 15152.314245 0000 0000 0
E: 15152.320920 0003 002f 0
E: 15152.320920 0003 003a 58
E: 15152.320921 0003 002f 1
E: 15152.320922 0003 0036 731
E: 15152.320923 0003 0018 58
E: 15152.320923 0000 0000 0
E: 15152.327772 0003 002f 0
E: 15152.327773 0003 0036 1101
E: 15152.327775 0003 002f 1
E: 15152.327775 0003 0036 730
E: 15152.327776 0003 0001 1101
E: 15152.327777 0000 0000 0
E: 15152.334659 0003 002f 0
E: 15152.334662 0003 0036 1100
E: 15152.334666 0003 002f 1
E: 15152.334667 0003 003a 52
E: 15152.334672 0003 0001 1100
E: 15152.334673 0000 0000 0
E: 15152.341543 0003 002f 0
E: 15152.341544 0003 003a 59
E: 15152.341546 0003 002f 1
E: 15152.341546 0003 0036 729
E: 15152.341550 0003 0018 59
E: 15152.341551 0000 0000 0
E: 15152.348299 0003 002f 0
E: 15152.348299 0003 0036 1099
E: 15152.348300 0003 003a 60
E: 15152.348301 0003 002f 1
E: 15152.348302 0003 0036 728
E: 15152.348302 0003 003a 55
E: 15152.348303 0003 0001 1099
E: 15152.348303 0003 0018 60
E: 15152.348304 0000 0000 0
E: 15152.355214 0003 002f 0
E: 15152.355215 0003 003a 62
E: 15152.355218 0003 002f 1
E: 15152.355218 0003 003a 57
E: 15152.355221 0003 0018 62
E: 15152.355222 0000 0000 0
E: 15152.368889 0003 002f 0
E: 15152.368890 0003 0036 1098
E: 15152.368891 0003 003a 59
E: 15152.368895 0003 002f 1
E: 15152.368896 0003 0036 727
E: 15152.368897 0003 003a 52
E: 15152.368904 0003 0001 1098
E: 15152.368905 0003 0018 59
E: 15152.368906 0000 0000 0
E: 15152.375637 0003 002f 0
E: 15152.375638 0003 003a 58
E: 15152.375639 0003 002f 1
E: 15152.375640 0003 003a 57
E: 15152.375641 0003 0018 58
E: 15152.375641 0000 0000 0
E: 15152.382447 0003 002f 0
E: 15152.382447 0003 003a 59
E: 15152.382448 0003 002f 1
E: 15152.382448 0003 003a 55
E: 15152.382450 0003 0018 59
E: 15152.382450 0000 0000 0
E: 15152.389375 0003 002f 0
E: 15152.389376 0003 0036 1097
E: 15152.389376 0003 003a 60
E: 15152.389377 0003 002f 1
E: 15152.389377 0003 0036 726
E: 15152.389377 0003 003a 53
E: 15152.389378 0003 0001 1097
E: 15152.389378 0003 0018 60
E: 15152.389378 0000 0000 0
E: 15152.396240 0003 002f 0
E: 15152.396241 0003 003a 63
E: 15152.396243 0003 002f 1
E: 15152.396244 0003 003a 56
E: 15152.396247 0003 0018 63
E: 15152.396248 0000 0000 0
E: 15152.403129 0003 002f 0
E: 15152.403132 0003 003a 60
E: 15152.403136 0003 002f 1
E: 15152.403137 0003 003a 55
E: 15152.403142 0003 0018 60
E: 15152.403143 0000 0000 0
E: 15152.409895 0003 002f 0
E: 15152.409897 0003 003a 61
E: 15152.409898 0003 002f 1
E: 15152.409898 0003 003a 56
E: 15152.409900 0003 0018 61
E: 15152.409900 0000 0000 0
E: 15152.416684 0003 002f 0
E: 15152.416685 0003 0036 1096
E: 15152.416685 0003 003a 62
E: 15152.416686 0003 002f 1
E: 15152.416687 0003 0036 725
E: 15152.416687 0003 003a 55
E: 15152.416689 0003 0001 1096
E: 15152.416689 0003 0018 62
E: 15152.416689 0000 0000 0
E: 15152.423581 0003 002f 0
E: 15152.423582 0003 0035 457
E: 15152.423583 0003 003a 59
E: 15152.423585 0003 002f 1
E: 15152.423586 0003 003a 53
E: 15152.423589 0003 0000 457
E: 15152.423590 0003 0018 59
E: 15152.423591 0000 0000 0
E: 15152.430384 0003 002f 0
E: 15152.430385 0003 003a 60
E: 15152.430387 0003 002f 1
E: 15152.430388 0003 003a 54
E: 15152.430391 0003 0018 60
E: 15152.430391 0000 0000 0
E: 15152.438145 0003 002f 0
E: 15152.438146 0003 003a 57
E: 15152.438148 0003 002f 1
E: 15152.438149 0003 003a 52
E: 15152.438153 0003 0018 57
E: 15152.438154 0000 0000 0
E: 15152.444979 0003 002f 0
E: 15152.444981 0003 0036 1095
E: 15152.444981 0003 003a 63
E: 15152.444984 0003 002f 1
E: 15152.444984 0003 003a 53
E: 15152.444988 0003 0001 1095
E: 15152.444988 0003 0018 63
E: 15152.444989 0000 0000 0
E: 15152.451804 0003 002f 0
E: 15152.451804 0003 003a 60
E: 15152.451805 0003 002f 1
E: 15152.451805 0003 0036 724
E: 15152.451805 0003 003a 51
E: 15152.451806 0003 0018 60
E: 15152.451806 0000 0000 0
E: 15152.458558 0003 003a 52
E: 15152.458562 0000 0000 0
E: 15152.465404 0003 002f 0
E: 15152.465405 0003 003a 55
E: 15152.465406 0003 002f 1
E: 15152.465406 0003 003a 50
E: 15152.465407 0003 0018 55
E: 15152.465408 0000 0000 0
E: 15152.472328 0003 002f 0
E: 15152.472329 0003 0035 458
E: 15152.472330 0003 003a 56
E: 15152.472333 0003 002f 1
E: 15152.472334 0003 0035 690
E: 15152.472338 0003 0000 458
E: 15152.472340 0003 0018 56
E: 15152.472340 0000 0000 0
E: 15152.479176 0003 002f 0
E: 15152.479178 0003 003a 49
E: 15152.479179 0003 002f 1
E: 15152.479180 0003 0035 691
E: 15152.479180 0003 003a 43
E: 15152.479184 0003 0018 49
E: 15152.479184 0000 0000 0
E: 15152.486133 0003 002f 0
E: 15152.486134 0003 003a 45
E: 15152.486137 0003 002f 1
E: 15152.486137 0003 0035 690
E: 15152.486138 0003 003a 39
E: 15152.486138 0003 0030 180
E: 15152.486142 0003 0018 45
E: 15152.486143 0000 0000 0
E: 15152.492905 0003 002f 0
E: 15152.492906 0003 0035 457
E: 15152.492907 0003 003a 34
E: 15152.492907 0003 0030 126
E: 15152.492909 0003 002f 1
E: 15152.492910 0003 0036 725
E: 15152.492910 0003 003a 32
E: 15152.492911 0003 0030 126
E: 15152.492913 0003 0000 457
E: 15152.492914 0003 0018 34
E: 15152.492915 0000 0000 0
E: 15152.499701 0003 002f 0
E: 15152.499702 0003 0036 1094
E: 15152.499702 0003 003a 27
E: 15152.499704 0003 002f 1
E: 15152.499705 0003 0036 724
E: 15152.499705 0003 003a 26
E: 15152.499708 0003 0001 1094
E: 15152.499708 0003 0018 27
E: 15152.499709 0000 0000 0
E: 15152.520505 0003 002f 0
E: 15152.520506 0003 0039 -1
E: 15152.520507 0003 002f 1
E: 15152.520508 0003 0039 -1
E: 15152.520509 0001 014a 0
E: 15152.520510 0001 014d 0
E: 15152.520512 0003 0018 0
E: 15152.520512 0000 0000 0
E: 15152.521012 0003 002f 0
E: 15152.521012 0003 0039 -1
E: 15152.521012 0003 002f 1
E: 15152.521012 0003 0039 -1
E: 15152.521012 0003 002f 2
E: 15152.521012 0003 0039 -1
E: 15152.521012 0003 002f 3
E: 15152.521012 0003 0039 -1
E: 15152.521012 0003 002f 4
E: 15152.521012 0003 0039 -1
E: 15152.521012 0003 002f 5
E: 15152.521012 0003 0039 -1
E: 15152.521012 0003 002f 6
E: 15152.521012 0003 0039 -1
E: 15152.521012 0003 002f 7
E: 15152.521012 0003 0039 -1
E: 15152.521012 0003 002f 8
E: 15152.521012 0003 0039 -1
E: 15152.521012 0003 002f 9
E: 15152.521012 0003 0039 -1
