# device: Cypress APA Trackpad (cyapa)
# bit: 0B 00 00 00 00 00 00 00
# key: 00 00 00 00 00 00 00 00 00 00 00 00 00 00 00 00 00 00 00 00 00 00 00 00 00 00 00 00 00 00 00 00 00 00 01 00 00 00 00 00 20 E5 00 00 00 00 00 00 00 00 00 00 00 00 00 00 00 00 00 00 00 00 00 00 00 00 00 00 00 00 00 00 00 00 00 00 00 00 00 00 00 00 00 00 00 00 00 00 00 00 00 00 00 00 00 00
# rel: 00 00 00 00 00 00 00 00
# abs: 03 00 00 01 00 80 60 06
# led: 00 00 00 00 00 00 00 00
# prp: 05 00 00 00 00 00 00 00
# absinfo: 0 0 1280 0 0 13
# absinfo: 1 0 960 0 0 15
# absinfo: 24 0 255 0 0 0
# absinfo: 47 0 14 0 0 0
# absinfo: 53 0 1280 0 0 13
# absinfo: 54 0 960 0 0 15
# absinfo: 57 0 65535 0 0 0
# absinfo: 58 0 255 0 0 0
E: 41622.562464 0003 002f 0
E: 41622.562464 0003 0030 0
E: 41622.562464 0003 0031 0
E: 41622.562464 0003 0032 0
E: 41622.562464 0003 0033 0
E: 41622.562464 0003 0034 0
E: 41622.562464 0003 0035 566
E: 41622.562464 0003 0036 376
E: 41622.562464 0003 0037 0
E: 41622.562464 0003 0038 0
E: 41622.562464 0003 0039 8197
E: 41622.562464 0003 003a 8
E: 41622.562464 0003 003b 0
E: 41622.562464 0003 002f 1
E: 41622.562464 0003 0039 -1
E: 41622.562464 0003 002f 2
E: 41622.562464 0003 0039 -1
E: 41622.562464 0003 002f 3
E: 41622.562464 0003 0039 -1
E: 41622.562464 0003 002f 4
E: 41622.562464 0003 0039 -1
E: 41622.562464 0003 002f 5
E: 41622.562464 0003 0039 -1
E: 41622.562464 0003 002f 6
E: 41622.562464 0003 0039 -1
E: 41622.562464 0003 002f 7
E: 41622.562464 0003 0039 -1
E: 41622.562464 0003 002f 8
E: 41622.562464 0003 0039 -1
E: 41622.562464 0003 002f 9
E: 41622.562464 0003 0039 -1
E: 41622.562464 0003 002f 10
E: 41622.562464 0003 0039 -1
E: 41622.562464 0003 002f 11
E: 41622.562464 0003 0039 -1
E: 41622.562464 0003 002f 12
E: 41622.562464 0003 0039 -1
E: 41622.562464 0003 002f 13
E: 41622.562464 0003 0039 -1
E: 41622.562464 0003 002f 14
E: 41622.562464 0003 0039 -1
E: 41622.562464 0003 002f 0
E: 41622.562464 0001 0145 1
E: 41622.562464 0001 014a 1
E: 41622.562464 0000 0000 0
E: 41622.573383 0003 0036 382
E: 41622.573383 0003 003a 15
E: 41622.573383 0003 0001 382
E: 41622.573383 0003 0018 15
E: 41622.573383 0000 0000 0
E: 41622.595083 0003 0036 386
E: 41622.595083 0003 003a 16
E: 41622.595083 0003 0001 386
E: 41622.595083 0003 0018 16
E: 41622.595083 0000 0000 0
E: 41622.605928 0003 003a 15
E: 41622.605928 0003 0018 15
E: 41622.605928 0000 0000 0
E: 41622.616786 0003 0036 388
E: 41622.616786 0003 003a 16
E: 41622.616786 0003 0001 388
E: 41622.616786 0003 0018 16
E: 41622.616786 0000 0000 0
E: 41622.627908 0003 0036 394
E: 41622.627908 0003 0001 394
E: 41622.627908 0000 0000 0
E: 41622.638838 0003 0036 401
E: 41622.638838 0003 0001 401
E: 41622.638838 0000 0000 0
E: 41622.649904 0003 0036 409
E: 41622.649904 0003 0001 409
E: 41622.649904 0000 0000 0
E: 41622.660833 0003 0036 417
E: 41622.660833 0003 0001 417
E: 41622.660833 0000 0000 0
E: 41622.671719 0003 0035 565
E: 41622.671719 0003 0036 423
E: 41622.671719 0003 003a 15
E: 41622.671719 0003 0000 565
E: 41622.671719 0003 0001 423
E: 41622.671719 0003 0018 15
E: 41622.671719 0000 0000 0
E: 41622.682925 0003 0035 563
E: 41622.682925 0003 0036 433
E: 41622.682925 0003 003a 16
E: 41622.682925 0003 0000 563
E: 41622.682925 0003 0001 433
E: 41622.682925 0003 0018 16
E: 41622.682925 0000 0000 0
E: 41622.693532 0003 0035 562
E: 41622.693532 0003 0036 441
E: 41622.693532 0003 003a 15
E: 41622.693532 0003 0000 562
E: 41622.693532 0003 0001 441
E: 41622.693532 0003 0018 15
E: 41622.693532 0000 0000 0
E: 41622.704337 0003 0036 450
E: 41622.704337 0003 003a 17
E: 41622.704337 0003 0001 450
E: 41622.704337 0003 0018 17
E: 41622.704337 0000 0000 0
E: 41622.715316 0003 0035 560
E: 41622.715316 0003 0036 459
E: 41622.715316 0003 003a 16
E: 41622.715316 0003 0000 560
E: 41622.715316 0003 0001 459
E: 41622.715316 0003 0018 16
E: 41622.715316 0000 0000 0
E: 41622.726307 0003 0035 558
E: 41622.726307 0003 0036 463
E: 41622.726307 0003 003a 17
E: 41622.726307 0003 0000 558
E: 41622.726307 0003 0001 463
E: 41622.726307 0003 0018 17
E: 41622.726307 0000 0000 0
E: 41622.737338 0003 0036 470
E: 41622.737338 0003 003a 18
E: 41622.737338 0003 0001 470
E: 41622.737338 0003 0018 18
E: 41622.737338 0000 0000 0
E: 41622.748311 0003 0036 474
E: 41622.748311 0003 0001 474
E: 41622.748311 0000 0000 0
E: 41622.759302 0003 0035 556
E: 41622.759302 0003 0036 478
E: 41622.759302 0003 0000 556
E: 41622.759302 0003 0001 478
E: 41622.759302 0000 0000 0
E: 41622.770548 0003 0036 482
E: 41622.770548 0003 003a 17
E: 41622.770548 0003 0001 482
E: 41622.770548 0003 0018 17
E: 41622.770548 0000 0000 0
E: 41622.781662 0003 0036 485
E: 41622.781662 0003 0001 485
E: 41622.781662 0000 0000 0
E: 41622.792620 0003 0036 488
E: 41622.792620 0003 0001 488
E: 41622.792620 0000 0000 0
E: 41622.803054 0003 0036 493
E: 41622.803054 0003 0001 493
E: 41622.803054 0000 0000 0
E: 41622.824734 0003 0036 496
E: 41622.824734 0003 0001 496
E: 41622.824734 0000 0000 0
E: 41622.835462 0003 0036 500
E: 41622.835462 0003 003a 16
E: 41622.835462 0003 0001 500
E: 41622.835462 0003 0018 16
E: 41622.835462 0000 0000 0
E: 41622.846408 0003 0036 505
E: 41622.846408 0003 0001 505
E: 41622.846408 0000 0000 0
E: 41622.857078 0003 0035 554
E: 41622.857078 0003 0036 513
E: 41622.857078 0003 0000 554
E: 41622.857078 0003 0001 513
E: 41622.857078 0000 0000 0
E: 41622.867859 0003 0036 521
E: 41622.867859 0003 0001 521
E: 41622.867859 0000 0000 0
E: 41622.878708 0003 0036 524
E: 41622.878708 0003 0001 524
E: 41622.878708 0000 0000 0
E: 41622.900263 0003 0035 553
E: 41622.900263 0003 0036 528
E: 41622.900263 0003 003a 17
E: 41622.900263 0003 0000 553
E: 41622.900263 0003 0001 528
E: 41622.900263 0003 0018 17
E: 41622.900263 0000 0000 0
E: 41622.911694 0003 0036 532
E: 41622.911694 0003 0001 532
E: 41622.911694 0000 0000 0
E: 41622.922491 0003 0036 535
E: 41622.922491 0003 0001 535
E: 41622.922491 0000 0000 0
E: 41622.932970 0003 0035 552
E: 41622.932970 0003 0036 539
E: 41622.932970 0003 0000 552
E: 41622.932970 0003 0001 539
E: 41622.932970 0000 0000 0
E: 41622.943760 0003 0036 541
E: 41622.943760 0003 0001 541
E: 41622.943760 0000 0000 0
E: 41622.954699 0003 0036 542
E: 41622.954699 0003 0001 542
E: 41622.954699 0000 0000 0
E: 41622.976602 0003 0035 551
E: 41622.976602 0003 0036 546
E: 41622.976602 0003 003a 18
E: 41622.976602 0003 0000 551
E: 41622.976602 0003 0001 546
E: 41622.976602 0003 0018 18
E: 41622.976602 0000 0000 0
E: 41622.987567 0003 0036 548
E: 41622.987567 0003 0001 548
E: 41622.987567 0000 0000 0
E: 41623.009829 0003 0036 549
E: 41623.009829 0003 0001 549
E: 41623.009829 0000 0000 0
E: 41623.020971 0003 0036 551
E: 41623.020971 0003 0001 551
E: 41623.020971 0000 0000 0
E: 41623.042223 0003 0036 553
E: 41623.042223 0003 0001 553
E: 41623.042223 0000 0000 0
E: 41623.064027 0003 0036 554
E: 41623.064027 0003 0001 554
E: 41623.064027 0000 0000 0
E: 41623.085777 0003 0036 555
E: 41623.085777 0003 0001 555
E: 41623.085777 0000 0000 0
E: 41623.140968 0003 003a 17
E: 41623.140968 0003 0018 17
E: 41623.140968 0000 0000 0
E: 41623.151737 0003 0035 550
E: 41623.151737 0003 0036 554
E: 41623.151737 0003 003a 16
E: 41623.151737 0003 0000 550
E: 41623.151737 0003 0001 554
E: 41623.151737 0003 0018 16
E: 41623.151737 0000 0000 0
E: 41623.162944 0003 0035 543
E: 41623.162944 0003 0036 551
E: 41623.162944 0003 003a 9
E: 41623.162944 0003 0000 543
E: 41623.162944 0003 0001 551
E: 41623.162944 0003 0018 9
E: 41623.162944 0000 0000 0
E: 41623.172556 0003 0039 -1
E: 41623.172556 0001 014a 0
E: 41623.172556 0001 0145 0
E: 41623.172556 0003 0018 0
E: 41623.172556 0000 0000 0
E: 41623.173056 0003 002f 0
E: 41623.173056 0003 0039 -1
E: 41623.173056 0003 002f 1
E: 41623.173056 0003 0039 -1
E: 41623.173056 0003 002f 2
E: 41623.173056 0003 0039 -1
E: 41623.173056 0003 002f 3
E: 41623.173056 0003 0039 -1
E: 41623.173056 0003 002f 4
E: 41623.173056 0003 0039 -1
E: 41623.173056 0003 002f 5
E: 41623.173056 0003 0039 -1
E: 41623.173056 0003 002f 6
E: 41623.173056 0003 0039 -1
E: 41623.173056 0003 002f 7
E: 41623.173056 0003 0039 -1
E: 41623.173056 0003 002f 8
E: 41623.173056 0003 0039 -1
E: 41623.173056 0003 002f 9
E: 41623.173056 0003 0039 -1
E: 41623.173056 0003 002f 10
E: 41623.173056 0003 0039 -1
E: 41623.173056 0003 002f 11
E: 41623.173056 0003 0039 -1
E: 41623.173056 0003 002f 12
E: 41623.173056 0003 0039 -1
E: 41623.173056 0003 002f 13
E: 41623.173056 0003 0039 -1
E: 41623.173056 0003 002f 14
E: 41623.173056 0003 0039 -1
