# device: Elan Touchpad
# bit: 0B 00 00 00 00 00 00 00
# key: 00 00 00 00 00 00 00 00 00 00 00 00 00 00 00 00 00 00 00 00 00 00 00 00 00 00 00 00 00 00 00 00 00 00 01 00 00 00 00 00 20 E5 00 00 00 00 00 00 00 00 00 00 00 00 00 00 00 00 00 00 00 00 00 00 00 00 00 00 00 00 00 00 00 00 00 00 00 00 00 00 00 00 00 00 00 00 00 00 00 00 00 00 00 00 00 00
# rel: 00 00 00 00 00 00 00 00
# abs: 03 00 00 11 00 80 63 06
# led: 00 00 00 00 00 00 00 00
# prp: 05 00 00 00 00 00 00 00
# absinfo: 0 0 3300 0 0 31
# absinfo: 1 0 1977 0 0 31
# absinfo: 24 0 255 0 0 0
# absinfo: 28 0 15 0 0 0
# absinfo: 47 0 4 0 0 0
# absinfo: 48 0 2475 0 0 0
# absinfo: 49 0 2460 0 0 0
# absinfo: 53 0 3300 0 0 31
# absinfo: 54 0 1977 0 0 31
# absinfo: 57 0 65535 0 0 0
# absinfo: 58 0 255 0 0 0
E: 4550.630290 0003 002f 0
E: 4550.630290 0003 0030 225
E: 4550.630290 0003 0031 74
E: 4550.630290 0003 0032 0
E: 4550.630290 0003 0033 0
E: 4550.630290 0003 0034 0
E: 4550.630290 0003 0035 1356
E: 4550.630290 0003 0036 1976
E: 4550.630290 0003 0037 0
E: 4550.630290 0003 0038 0
E: 4550.630290 0003 0039 46
E: 4550.630290 0003 003a 39
E: 4550.630290 0003 003b 0
E: 4550.630290 0003 002f 1
E: 4550.630290 0003 0030 225
E: 4550.630290 0003 0031 74
E: 4550.630290 0003 0032 0
E: 4550.630290 0003 0033 0
E: 4550.630290 0003 0034 0
E: 4550.630290 0003 0035 2116
E: 4550.630290 0003 0036 1976
E: 4550.630290 0003 0037 0
E: 4550.630290 0003 0038 0
E: 4550.630290 0003 0039 47
E: 4550.630290 0003 003a 39
E: 4550.630290 0003 003b 0
E: 4550.630290 0003 002f 2
E: 4550.630290 0003 0039 -1
E: 4550.630290 0003 002f 3
E: 4550.630290 0003 0039 -1
E: 4550.630290 0003 002f 4
E: 4550.630290 0003 0039 -1
E: 4550.630290 0003 002f 1
E: 4550.630290 0001 014a 1
E: 4550.630290 0001 014d 1
E: 4550.630290 0000 0000 0
E: 4550.637959 0003 002f 0
E: 4550.637959 0003 0035 1354
E: 4550.637959 0003 0036 1950
E: 4550.637959 0003 003a 44
E: 4550.637959 0003 0031 148
E: 4550.637959 0003 002f 1
E: 4550.637959 0003 0035 2114
E: 4550.637959 0003 0036 1948
E: 4550.637959 0003 003a 44
E: 4550.637959 0003 0031 148
E: 4550.637959 0003 0000 1354
E: 4550.637959 0003 0001 1950
E: 4550.637959 0003 0018 44
E: 4550.637959 0000 0000 0
E: 4550.642364 0003 002f 0
E: 4550.642364 0003 0036 1901
E: 4550.642364 0003 003a 49
E: 4550.642364 0003 0031 222
E: 4550.642364 0003 002f 1
E: 4550.642364 0003 0035 2109
E: 4550.642364 0003 0036 1900
E: 4550.642364 0003 003a 48
E: 4550.642364 0003 0001 1901
E: 4550.642364 0003 0018 49
E: 4550.642364 0000 0000 0
E: 4550.646840 0003 002f 0
E: 4550.646840 0003 0036 1844
E: 4550.646840 0003 003a 53
E: 4550.646840 0003 002f 1
E: 4550.646840 0003 0036 1839
E: 4550.646840 0003 003a 51
E: 4550.646840 0003 0031 222
E: 4550.646840 0003 0001 1844
E: 4550.646840 0003 0018 53
E: 4550.646840 0000 0000 0
E: 4550.652402 0003 002f 0
E: 4550.652402 0003 0035 1352
E: 4550.652402 0003 0036 1802
E: 4550.652402 0003 003a 55
E: 4550.652402 0003 002f 1
E: 4550.652402 0003 0035 2110
E: 4550.652402 0003 0036 1804
E: 4550.652402 0003 003a 53
E: 4550.652402 0003 0000 1352
E: 4550.652402 0003 0001 1802
E: 4550.652402 0003 0018 55
E: 4550.652402 0000 0000 0
E: 4550.658638 0003 002f 0
E: 4550.658638 0003 0035 1349
E: 4550.658638 0003 0036 1782
E: 4550.658638 0003 002f 1
E: 4550.658638 0003 0035 2111
E: 4550.658638 0003 0036 1781
E: 4550.658638 0003 003a 54
E: 4550.658638 0003 0000 1349
E: 4550.658638 0003 0001 1782
E: 4550.658638 0000 0000 0
E: 4550.663964 0003 002f 0
E: 4550.663964 0003 0035 1348
E: 4550.663964 0003 0036 1757
E: 4550.663964 0003 002f 1
E: 4550.663964 0003 0036 1752
E: 4550.663964 0003 0000 1348
E: 4550.663964 0003 0001 1757
E: 4550.663964 0000 0000 0
E: 4550.669782 0003 002f 0
E: 4550.669782 0003 0035 1346
E: 4550.669782 0003 0036 1728
E: 4550.669782 0003 002f 1
E: 4550.669782 0003 0035 2107
E: 4550.669782 0003 0036 1721
E: 4550.669782 0003 001c 4
E: 4550.669782 0003 0030 300
E: 4550.669782 0003 0000 1346
E: 4550.669782 0003 0001 1728
E: 4550.669782 0000 0000 0
E: 4550.675703 0003 002f 0
E: 4550.675703 0003 0035 1352
E: 4550.675703 0003 0036 1694
E: 4550.675703 0003 003a 56
E: 4550.675703 0003 001c 3
E: 4550.675703 0003 0030 296
E: 4550.675703 0003 0031 225
E: 4550.675703 0003 002f 1
E: 4550.675703 0003 0035 2102
E: 4550.675703 0003 0036 1690
E: 4550.675703 0003 003a 55
E: 4550.675703 0003 0030 296
E: 4550.675703 0003 0031 225
E: 4550.675703 0003 0000 1352
E: 4550.675703 0003 0001 1694
E: 4550.675703 0003 0018 56
E: 4550.675703 0000 0000 0
E: 4550.682998 0003 002f 0
E: 4550.682998 0003 0035 1348
E: 4550.682998 0003 0036 1664
E: 4550.682998 0003 002f 1
E: 4550.682998 0003 0035 2097
E: 4550.682998 0003 0036 1652
E: 4550.682998 0003 001c 4
E: 4550.682998 0003 0030 300
E: 4550.682998 0003 0031 222
E: 4550.682998 0003 0000 1348
E: 4550.682998 0003 0001 1664
E: 4550.682998 0000 0000 0
E: 4550.687910 0003 002f 0
E: 4550.687910 0003 0035 1336
E: 4550.687910 0003 0036 1618
E: 4550.687910 0003 003a 55
E: 4550.687910 0003 001c 3
E: 4550.687910 0003 002f 1
E: 4550.687910 0003 0035 2102
E: 4550.687910 0003 0036 1611
E: 4550.687910 0003 001c 4
E: 4550.687910 0003 0000 1336
E: 4550.687910 0003 0001 1618
E: 4550.687910 0003 0018 55
E: 4550.687910 0000 0000 0
E: 4550.693304 0003 002f 0
E: 4550.693304 0003 0035 1332
E: 4550.693304 0003 0036 1584
E: 4550.693304 0003 001c 3
E: 4550.693304 0003 0030 225
E: 4550.693304 0003 0031 222
E: 4550.693304 0003 002f 1
E: 4550.693304 0003 0035 2095
E: 4550.693304 0003 0036 1579
E: 4550.693304 0003 001c 4
E: 4550.693304 0003 0000 1332
E: 4550.693304 0003 0001 1584
E: 4550.693304 0000 0000 0
E: 4550.699174 0003 002f 0
E: 4550.699174 0003 0035 1326
E: 4550.699174 0003 0036 1557
E: 4550.699174 0003 003a 56
E: 4550.699174 0003 001c 3
E: 4550.699174 0003 002f 1
E: 4550.699174 0003 0035 2088
E: 4550.699174 0003 0036 1555
E: 4550.699174 0003 001c 4
E: 4550.699174 0003 0000 1326
E: 4550.699174 0003 0001 1557
E: 4550.699174 0003 0018 56
E: 4550.699174 0000 0000 0
E: 4550.705046 0003 002f 0
E: 4550.705046 0003 0035 1320
E: 4550.705046 0003 0036 1520
E: 4550.705046 0003 001c 3
E: 4550.705046 0003 0030 296
E: 4550.705046 0003 0031 225
E: 4550.705046 0003 002f 1
E: 4550.705046 0003 0035 2084
E: 4550.705046 0003 0036 1522
E: 4550.705046 0003 003a 57
E: 4550.705046 0003 001c 4
E: 4550.705046 0003 0031 296
E: 4550.705046 0003 0000 1320
E: 4550.705046 0003 0001 1520
E: 4550.705046 0000 0000 0
E: 4550.712263 0003 002f 0
E: 4550.712263 0003 0035 1322
E: 4550.712263 0003 0036 1481
E: 4550.712263 0003 003a 55
E: 4550.712263 0003 001c 3
E: 4550.712263 0003 0030 225
E: 4550.712263 0003 0031 222
E: 4550.712263 0003 002f 1
E: 4550.712263 0003 0035 2081
E: 4550.712263 0003 0036 1486
E: 4550.712263 0003 003a 56
E: 4550.712263 0003 001c 4
E: 4550.712263 0003 0031 222
E: 4550.712263 0003 0000 1322
E: 4550.712263 0003 0001 1481
E: 4550.712263 0003 0018 55
E: 4550.712263 0000 0000 0
E: 4550.716348 0003 002f 0
E: 4550.716348 0003 0035 1320
E: 4550.716348 0003 0036 1443
E: 4550.716348 0003 001c 3
E: 4550.716348 0003 002f 1
E: 4550.716348 0003 0035 2075
E: 4550.716348 0003 0036 1447
E: 4550.716348 0003 003a 55
E: 4550.716348 0003 001c 4
E: 4550.716348 0003 0000 1320
E: 4550.716348 0003 0001 1443
E: 4550.716348 0000 0000 0
E: 4550.722189 0003 002f 0
E: 4550.722189 0003 0035 1305
E: 4550.722189 0003 0036 1403
E: 4550.722189 0003 001c 3
E: 4550.722189 0003 002f 1
E: 4550.722189 0003 0035 2078
E: 4550.722189 0003 0036 1403
E: 4550.722189 0003 003a 54
E: 4550.722189 0003 0030 225
E: 4550.722189 0003 0000 1305
E: 4550.722189 0003 0001 1403
E: 4550.722189 0000 0000 0
E: 4550.728127 0003 002f 0
E: 4550.728127 0003 0036 1358
E: 4550.728127 0003 003a 56
E: 4550.728127 0003 0030 296
E: 4550.728127 0003 0031 225
E: 4550.728127 0003 002f 1
E: 4550.728127 0003 0035 2075
E: 4550.728127 0003 0036 1361
E: 4550.728127 0003 001c 4
E: 4550.728127 0003 0030 300
E: 4550.728127 0003 0031 296
E: 4550.728127 0003 0001 1358
E: 4550.728127 0003 0018 56
E: 4550.728127 0000 0000 0
E: 4550.735391 0003 002f 0
E: 4550.735391 0003 0035 1307
E: 4550.735391 0003 0036 1325
E: 4550.735391 0003 003a 55
E: 4550.735391 0003 001c 3
E: 4550.735391 0003 002f 1
E: 4550.735391 0003 0035 2069
E: 4550.735391 0003 0036 1319
E: 4550.735391 0003 001c 4
E: 4550.735391 0003 0031 222
E: 4550.735391 0003 0000 1307
E: 4550.735391 0003 0001 1325
E: 4550.735391 0003 0018 55
E: 4550.735391 0000 0000 0
E: 4550.740219 0003 002f 0
E: 4550.740219 0003 0035 1298
E: 4550.740219 0003 0036 1263
E: 4550.740219 0003 001c 3
E: 4550.740219 0003 0030 225
E: 4550.740219 0003 0031 222
E: 4550.740219 0003 002f 1
E: 4550.740219 0003 0035 2072
E: 4550.740219 0003 0036 1263
E: 4550.740219 0003 001c 4
E: 4550.740219 0003 0000 1298
E: 4550.740219 0003 0001 1263
E: 4550.740219 0000 0000 0
E: 4550.745599 0003 002f 0
E: 4550.745599 0003 0035 1300
E: 4550.745599 0003 0036 1232
E: 4550.745599 0003 003a 56
E: 4550.745599 0003 001c 3
E: 4550.745599 0003 0030 296
E: 4550.745599 0003 0031 225
E: 4550.745599 0003 002f 1
E: 4550.745599 0003 0035 2075
E: 4550.745599 0003 0036 1230
E: 4550.745599 0003 003a 56
E: 4550.745599 0003 001c 4
E: 4550.745599 0003 0031 296
E: 4550.745599 0003 0000 1300
E: 4550.745599 0003 0001 1232
E: 4550.745599 0003 0018 56
E: 4550.745599 0000 0000 0
E: 4550.752754 0003 002f 0
E: 4550.752754 0003 0035 1302
E: 4550.752754 0003 0036 1192
E: 4550.752754 0003 001c 3
E: 4550.752754 0003 002f 1
E: 4550.752754 0003 0035 2076
E: 4550.752754 0003 0036 1186
E: 4550.752754 0003 001c 4
E: 4550.752754 0003 0031 222
E: 4550.752754 0003 0000 1302
E: 4550.752754 0003 0001 1192
E: 4550.752754 0000 0000 0
E: 4550.757738 0003 002f 0
E: 4550.757738 0003 0035 1305
E: 4550.757738 0003 0036 1155
E: 4550.757738 0003 003a 55
E: 4550.757738 0003 001c 3
E: 4550.757738 0003 002f 1
E: 4550.757738 0003 0035 2083
E: 4550.757738 0003 0036 1150
E: 4550.757738 0003 003a 54
E: 4550.757738 0003 0030 225
E: 4550.757738 0003 0000 1305
E: 4550.757738 0003 0001 1155
E: 4550.757738 0003 0018 55
E: 4550.757738 0000 0000 0
E: 4550.763576 0003 002f 0
E: 4550.763576 0003 0035 1302
E: 4550.763576 0003 0036 1111
E: 4550.763576 0003 003a 56
E: 4550.763576 0003 0030 225
E: 4550.763576 0003 0031 222
E: 4550.763576 0003 002f 1
E: 4550.763576 0003 0035 2080
E: 4550.763576 0003 0036 1110
E: 4550.763576 0003 003a 55
E: 4550.763576 0003 001c 4
E: 4550.763576 0003 0030 300
E: 4550.763576 0003 0000 1302
E: 4550.763576 0003 0001 1111
E: 4550.763576 0003 0018 56
E: 4550.763576 0000 0000 0
E: 4550.769440 0003 002f 0
E: 4550.769440 0003 0035 1299
E: 4550.769440 0003 0036 1067
E: 4550.769440 0003 001c 3
E: 4550.769440 0003 0030 296
E: 4550.769440 0003 0031 225
E: 4550.769440 0003 002f 1
E: 4550.769440 0003 0035 2086
E: 4550.769440 0003 0036 1071
E: 4550.769440 0003 003a 57
E: 4550.769440 0003 0030 296
E: 4550.769440 0003 0031 225
E: 4550.769440 0003 0000 1299
E: 4550.769440 0003 0001 1067
E: 4550.769440 0000 0000 0
E: 4550.775150 0003 002f 0
E: 4550.775150 0003 0035 1300
E: 4550.775150 0003 0036 1020
E: 4550.775150 0003 003a 55
E: 4550.775150 0003 0030 225
E: 4550.775150 0003 0031 222
E: 4550.775150 0003 002f 1
E: 4550.775150 0003 0035 2085
E: 4550.775150 0003 0036 1029
E: 4550.775150 0003 003a 56
E: 4550.775150 0003 0030 225
E: 4550.775150 0003 0031 222
E: 4550.775150 0003 0000 1300
E: 4550.775150 0003 0001 1020
E: 4550.775150 0003 0018 55
E: 4550.775150 0000 0000 0
E: 4550.782673 0003 002f 0
E: 4550.782673 0003 0035 1304
E: 4550.782673 0003 0036 982
E: 4550.782673 0003 002f 1
E: 4550.782673 0003 0035 2089
E: 4550.782673 0003 0036 990
E: 4550.782673 0003 003a 54
E: 4550.782673 0003 0000 1304
E: 4550.782673 0003 0001 982
E: 4550.782673 0000 0000 0
E: 4550.787765 0003 002f 0
E: 4550.787765 0003 0035 1299
E: 4550.787765 0003 0036 915
E: 4550.787765 0003 003a 57
E: 4550.787765 0003 0030 296
E: 4550.787765 0003 0031 225
E: 4550.787765 0003 002f 1
E: 4550.787765 0003 0035 2081
E: 4550.787765 0003 0036 924
E: 4550.787765 0003 003a 55
E: 4550.787765 0003 001c 4
E: 4550.787765 0003 0030 300
E: 4550.787765 0003 0031 296
E: 4550.787765 0003 0000 1299
E: 4550.787765 0003 0001 915
E: 4550.787765 0003 0018 57
E: 4550.787765 0000 0000 0
E: 4550.792756 0003 002f 0
E: 4550.792756 0003 0035 1298
E: 4550.792756 0003 0036 880
E: 4550.792756 0003 001c 3
E: 4550.792756 0003 002f 1
E: 4550.792756 0003 0035 2078
E: 4550.792756 0003 0036 890
E: 4550.792756 0003 003a 56
E: 4550.792756 0003 001c 4
E: 4550.792756 0003 0000 1298
E: 4550.792756 0003 0001 880
E: 4550.792756 0000 0000 0
E: 4550.798310 0003 002f 0
E: 4550.798310 0003 0035 1299
E: 4550.798310 0003 0036 846
E: 4550.798310 0003 003a 56
E: 4550.798310 0003 001c 3
E: 4550.798310 0003 002f 1
E: 4550.798310 0003 0035 2076
E: 4550.798310 0003 0036 859
E: 4550.798310 0003 003a 55
E: 4550.798310 0003 001c 4
E: 4550.798310 0003 0031 222
E: 4550.798310 0003 0000 1299
E: 4550.798310 0003 0001 846
E: 4550.798310 0003 0018 56
E: 4550.798310 0000 0000 0
E: 4550.804176 0003 002f 0
E: 4550.804176 0003 0035 1293
E: 4550.804176 0003 0036 805
E: 4550.804176 0003 001c 3
E: 4550.804176 0003 0030 225
E: 4550.804176 0003 0031 222
E: 4550.804176 0003 002f 1
E: 4550.804176 0003 0035 2074
E: 4550.804176 0003 0036 820
E: 4550.804176 0003 001c 4
E: 4550.804176 0003 0000 1293
E: 4550.804176 0003 0001 805
E: 4550.804176 0000 0000 0
E: 4550.810102 0003 002f 0
E: 4550.810102 0003 0035 1294
E: 4550.810102 0003 0036 764
E: 4550.810102 0003 003a 57
E: 4550.810102 0003 001c 3
E: 4550.810102 0003 0030 296
E: 4550.810102 0003 0031 225
E: 4550.810102 0003 002f 1
E: 4550.810102 0003 0036 780
E: 4550.810102 0003 003a 57
E: 4550.810102 0003 001c 4
E: 4550.810102 0003 0031 296
E: 4550.810102 0003 0000 1294
E: 4550.810102 0003 0001 764
E: 4550.810102 0003 0018 57
E: 4550.810102 0000 0000 0
E: 4550.815971 0003 002f 0
E: 4550.815971 0003 0035 1292
E: 4550.815971 0003 0036 720
E: 4550.815971 0003 003a 56
E: 4550.815971 0003 001c 3
E: 4550.815971 0003 002f 1
E: 4550.815971 0003 0035 2076
E: 4550.815971 0003 0036 735
E: 4550.815971 0003 0030 296
E: 4550.815971 0003 0031 225
E: 4550.815971 0003 0000 1292
E: 4550.815971 0003 0001 720
E: 4550.815971 0003 0018 56
E: 4550.815971 0000 0000 0
E: 4550.821887 0003 002f 0
E: 4550.821887 0003 0035 1291
E: 4550.821887 0003 0036 680
E: 4550.821887 0003 003a 55
E: 4550.821887 0003 002f 1
E: 4550.821887 0003 0035 2071
E: 4550.821887 0003 0036 694
E: 4550.821887 0003 003a 56
E: 4550.821887 0003 001c 4
E: 4550.821887 0003 0030 300
E: 4550.821887 0003 0031 296
E: 4550.821887 0003 0000 1291
E: 4550.821887 0003 0001 680
E: 4550.821887 0003 0018 55
E: 4550.821887 0000 0000 0
E: 4550.829046 0003 002f 0
E: 4550.829046 0003 0035 1287
E: 4550.829046 0003 0036 631
E: 4550.829046 0003 001c 3
E: 4550.829046 0003 002f 1
E: 4550.829046 0003 0035 2069
E: 4550.829046 0003 0036 646
E: 4550.829046 0003 003a 55
E: 4550.829046 0003 001c 4
E: 4550.829046 0003 0031 222
E: 4550.829046 0003 0000 1287
E: 4550.829046 0003 0001 631
E: 4550.829046 0000 0000 0
E: 4550.834577 0003 002f 0
E: 4550.834577 0003 0035 1286
E: 4550.834577 0003 0036 565
E: 4550.834577 0003 001c 3
E: 4550.834577 0003 0030 225
E: 4550.834577 0003 0031 222
E: 4550.834577 0003 002f 1
E: 4550.834577 0003 0035 2071
E: 4550.834577 0003 0036 582
E: 4550.834577 0003 003a 56
E: 4550.834577 0003 001c 4
E: 4550.834577 0003 0031 296
E: 4550.834577 0003 0000 1286
E: 4550.834577 0003 0001 565
E: 4550.834577 0000 0000 0
E: 4550.840273 0003 002f 0
E: 4550.840273 0003 0035 1290
E: 4550.840273 0003 0036 528
E: 4550.840273 0003 001c 3
E: 4550.840273 0003 002f 1
E: 4550.840273 0003 0035 2077
E: 4550.840273 0003 0036 545
E: 4550.840273 0003 003a 55
E: 4550.840273 0003 0030 225
E: 4550.840273 0003 0031 222
E: 4550.840273 0003 0000 1290
E: 4550.840273 0003 0001 528
E: 4550.840273 0000 0000 0
E: 4550.845795 0003 002f 0
E: 4550.845795 0003 0035 1293
E: 4550.845795 0003 0036 490
E: 4550.845795 0003 003a 56
E: 4550.845795 0003 0030 296
E: 4550.845795 0003 0031 225
E: 4550.845795 0003 002f 1
E: 4550.845795 0003 0035 2075
E: 4550.845795 0003 0036 508
E: 4550.845795 0003 001c 4
E: 4550.845795 0003 0030 300
E: 4550.845795 0003 0000 1293
E: 4550.845795 0003 0001 490
E: 4550.845795 0003 0018 56
E: 4550.845795 0000 0000 0
E: 4550.854299 0003 002f 0
E: 4550.854299 0003 0035 1292
E: 4550.854299 0003 0036 446
E: 4550.854299 0003 001c 3
E: 4550.854299 0003 002f 1
E: 4550.854299 0003 0035 2077
E: 4550.854299 0003 0036 470
E: 4550.854299 0003 003a 57
E: 4550.854299 0003 001c 4
E: 4550.854299 0003 0031 296
E: 4550.854299 0003 0000 1292
E: 4550.854299 0003 0001 446
E: 4550.854299 0000 0000 0
E: 4550.856852 0003 002f 0
E: 4550.856852 0003 0035 1298
E: 4550.856852 0003 0036 404
E: 4550.856852 0003 003a 55
E: 4550.856852 0003 001c 3
E: 4550.856852 0003 002f 1
E: 4550.856852 0003 0035 2080
E: 4550.856852 0003 0036 425
E: 4550.856852 0003 003a 56
E: 4550.856852 0003 001c 4
E: 4550.856852 0003 0000 1298
E: 4550.856852 0003 0001 404
E: 4550.856852 0003 0018 55
E: 4550.856852 0000 0000 0
E: 4550.862695 0003 002f 0
E: 4550.862695 0003 0035 1303
E: 4550.862695 0003 0036 356
E: 4550.862695 0003 001c 3
E: 4550.862695 0003 002f 1
E: 4550.862695 0003 0035 2090
E: 4550.862695 0003 0036 382
E: 4550.862695 0003 003a 54
E: 4550.862695 0003 0030 225
E: 4550.862695 0003 0031 222
E: 4550.862695 0003 0000 1303
E: 4550.862695 0003 0001 356
E: 4550.862695 0000 0000 0
E: 4550.868551 0003 002f 0
E: 4550.868551 0003 0035 1304
E: 4550.868551 0003 0036 319
E: 4550.868551 0003 003a 56
E: 4550.868551 0003 002f 1
E: 4550.868551 0003 0035 2088
E: 4550.868551 0003 0036 339
E: 4550.868551 0003 0000 1304
E: 4550.868551 0003 0001 319
E: 4550.868551 0003 0018 56
E: 4550.868551 0000 0000 0
E: 4550.874412 0003 002f 0
E: 4550.874412 0003 0035 1305
E: 4550.874412 0003 0036 278
E: 4550.874412 0003 002f 1
E: 4550.874412 0003 0035 2090
E: 4550.874412 0003 0036 297
E: 4550.874412 0003 003a 55
E: 4550.874412 0003 0030 296
E: 4550.874412 0003 0031 225
E: 4550.874412 0003 0000 1305
E: 4550.874412 0003 0001 278
E: 4550.874412 0000 0000 0
E: 4550.881616 0003 002f 0
E: 4550.881616 0003 0035 1313
E: 4550.881616 0003 0036 237
E: 4550.881616 0003 003a 55
E: 4550.881616 0003 002f 1
E: 4550.881616 0003 0035 2095
E: 4550.881616 0003 0036 255
E: 4550.881616 0003 0000 1313
E: 4550.881616 0003 0001 237
E: 4550.881616 0003 0018 55
E: 4550.881616 0000 0000 0
E: 4550.886358 0003 002f 0
E: 4550.886358 0003 0035 1312
E: 4550.886358 0003 0036 184
E: 4550.886358 0003 003a 56
E: 4550.886358 0003 0030 225
E: 4550.886358 0003 0031 222
E: 4550.886358 0003 002f 1
E: 4550.886358 0003 0035 2100
E: 4550.886358 0003 0036 198
E: 4550.886358 0003 0030 225
E: 4550.886358 0003 0031 222
E: 4550.886358 0003 0000 1312
E: 4550.886358 0003 0001 184
E: 4550.886358 0003 0018 56
E: 4550.886358 0000 0000 0
E: 4550.893190 0003 002f 0
E: 4550.893190 0003 0035 1307
E: 4550.893190 0003 0036 146
E: 4550.893190 0003 002f 1
E: 4550.893190 0003 0035 2094
E: 4550.893190 0003 0036 167
E: 4550.893190 0003 003a 56
E: 4550.893190 0003 0000 1307
E: 4550.893190 0003 0001 146
E: 4550.893190 0000 0000 0
E: 4550.898306 0003 002f 0
E: 4550.898306 0003 0035 1306
E: 4550.898306 0003 0036 106
E: 4550.898306 0003 003a 55
E: 4550.898306 0003 002f 1
E: 4550.898306 0003 0035 2095
E: 4550.898306 0003 0036 116
E: 4550.898306 0003 003a 55
E: 4550.898306 0003 0000 1306
E: 4550.898306 0003 0001 106
E: 4550.898306 0003 0018 55
E: 4550.898306 0000 0000 0
E: 4550.904123 0003 002f 0
E: 4550.904123 0003 0035 1312
E: 4550.904123 0003 0036 71
E: 4550.904123 0003 003a 53
E: 4550.904123 0003 002f 1
E: 4550.904123 0003 0035 2097
E: 4550.904123 0003 0036 72
E: 4550.904123 0003 003a 53
E: 4550.904123 0003 0000 1312
E: 4550.904123 0003 0001 71
E: 4550.904123 0003 0018 53
E: 4550.904123 0000 0000 0
E: 4550.910386 0003 002f 0
E: 4550.910386 0003 0035 1310
E: 4550.910386 0003 0036 37
E: 4550.910386 0003 003a 50
E: 4550.910386 0003 0031 148
E: 4550.910386 0003 002f 1
E: 4550.910386 0003 0035 2100
E: 4550.910386 0003 0036 36
E: 4550.910386 0003 003a 51
E: 4550.910386 0003 0031 148
E: 4550.910386 0003 0000 1310
E: 4550.910386 0003 0001 37
E: 4550.910386 0003 0018 50
E: 4550.910386 0000 0000 0
E: 4550.915408 0003 002f 0
E: 4550.915408 0003 0035 1309
E: 4550.915408 0003 0036 20
E: 4550.915408 0003 003a 47
E: 4550.915408 0003 002f 1
E: 4550.915408 0003 0035 2096
E: 4550.915408 0003 0036 17
E: 4550.915408 0003 003a 49
E: 4550.915408 0003 0000 1309
E: 4550.915408 0003 0001 20
E: 4550.915408 0003 0018 47
E: 4550.915408 0000 0000 0
E: 4550.921250 0003 002f 0
E: 4550.921250 0003 0035 1302
E: 4550.921250 0003 0036 9
E: 4550.921250 0003 003a 45
E: 4550.921250 0003 002f 1
E: 4550.921250 0003 0035 2091
E: 4550.921250 0003 0036 4
E: 4550.921250 0003 003a 47
E: 4550.921250 0003 0000 1302
E: 4550.921250 0003 0001 9
E: 4550.921250 0003 0018 45
E: 4550.921250 0000 0000 0
E: 4550.927908 0003 002f 0
E: 4550.927908 0003 0035 1300
E: 4550.927908 0003 0036 4
E: 4550.927908 0003 003a 42
E: 4550.927908 0003 002f 1
E: 4550.927908 0003 0036 0
E: 4550.927908 0003 003a 44
E: 4550.927908 0003 0000 1300
E: 4550.927908 0003 0001 4
E: 4550.927908 0003 0018 42
E: 4550.927908 0000 0000 0
E: 4550.933040 0003 002f 0
E: 4550.933040 0003 003a 40
E: 4550.933040 0003 001c 1
E: 4550.933040 0003 0030 75
E: 4550.933040 0003 0031 74
E: 4550.933040 0003 002f 1
E: 4550.933040 0003 003a 42
E: 4550.933040 0003 0030 75
E: 4550.933040 0003 0031 74
E: 4550.933040 0003 0018 40
E: 4550.933040 0000 0000 0
E: 4550.938773 0003 002f 0
E: 4550.938773 0003 0039 -1
E: 4550.938773 0003 002f 1
E: 4550.938773 0003 0039 -1
E: 4550.938773 0001 014a 0
E: 4550.938773 0001 014d 0
E: 4550.938773 0003 0018 0
E: 4550.938773 0000 0000 0
E: 4552.164715 0003 002f 0
E: 4552.164715 0003 0039 48
E: 4552.164715 0003 0035 0
E: 4552.164715 0003 0036 572
E: 4552.164715 0003 003a 41
E: 4552.164715 0003 001c 2
E: 4552.164715 0003 0030 222
E: 4552.164715 0003 0031 150
E: 4552.164715 0001 014a 1
E: 4552.164715 0001 0145 1
E: 4552.164715 0003 0000 0
E: 4552.164715 0003 0001 572
E: 4552.164715 0003 0018 41
E: 4552.164715 0000 0000 0
E: 4552.170542 0003 003a 42
E: 4552.170542 0003 0018 42
E: 4552.170542 0000 0000 0
E: 4552.175703 0003 003a 44
E: 4552.175703 0003 002f 1
E: 4552.175703 0003 0039 49
E: 4552.175703 0003 0035 0
E: 4552.175703 0003 0036 1202
E: 4552.175703 0003 003a 39
E: 4552.175703 0003 0030 150
E: 4552.175703 0003 0031 148
E: 4552.175703 0001 0145 0
E: 4552.175703 0001 014d 1
E: 4552.175703 0003 0018 44
E: 4552.175703 0000 0000 0
E: 4552.181861 0003 002f 0
E: 4552.181861 0003 0035 21
E: 4552.181861 0003 0036 569
E: 4552.181861 0003 003a 47
E: 4552.181861 0003 002f 1
E: 4552.181861 0003 003a 41
E: 4552.181861 0003 0030 222
E: 4552.181861 0003 0031 150
E: 4552.181861 0003 0000 21
E: 4552.181861 0003 0001 569
E: 4552.181861 0003 0018 47
E: 4552.181861 0000 0000 0
E: 4552.187543 0003 002f 0
E: 4552.187543 0003 0035 99
E: 4552.187543 0003 0036 562
E: 4552.187543 0003 003a 51
E: 4552.187543 0003 001c 3
E: 4552.187543 0003 0030 225
E: 4552.187543 0003 0031 222
E: 4552.187543 0003 002f 1
E: 4552.187543 0003 0035 31
E: 4552.187543 0003 003a 43
E: 4552.187543 0003 001c 2
E: 4552.187543 0003 0030 150
E: 4552.187543 0003 0031 148
E: 4552.187543 0003 0000 99
E: 4552.187543 0003 0001 562
E: 4552.187543 0003 0018 51
E: 4552.187543 0000 0000 0
E: 4552.192572 0003 002f 0
E: 4552.192572 0003 0035 198
E: 4552.192572 0003 0036 561
E: 4552.192572 0003 003a 53
E: 4552.192572 0003 001c 3
E: 4552.192572 0003 002f 1
E: 4552.192572 0003 0035 159
E: 4552.192572 0003 0036 1190
E: 4552.192572 0003 003a 46
E: 4552.192572 0003 0030 225
E: 4552.192572 0003 0031 222
E: 4552.192572 0003 0000 198
E: 4552.192572 0003 0001 561
E: 4552.192572 0003 0018 53
E: 4552.192572 0000 0000 0
E: 4552.200274 0003 002f 0
E: 4552.200274 0003 0035 253
E: 4552.200274 0003 0036 559
E: 4552.200274 0003 002f 1
E: 4552.200274 0003 0035 219
E: 4552.200274 0003 0036 1181
E: 4552.200274 0003 003a 47
E: 4552.200274 0003 0000 253
E: 4552.200274 0003 0001 559
E: 4552.200274 0000 0000 0
E: 4552.206814 0003 002f 0
E: 4552.206814 0003 0035 314
E: 4552.206814 0003 0036 553
E: 4552.206814 0003 003a 54
E: 4552.206814 0003 001c 2
E: 4552.206814 0003 0030 222
E: 4552.206814 0003 0031 150
E: 4552.206814 0003 002f 1
E: 4552.206814 0003 0035 294
E: 4552.206814 0003 0036 1184
E: 4552.206814 0003 0030 222
E: 4552.206814 0003 0031 150
E: 4552.206814 0003 0000 314
E: 4552.206814 0003 0001 553
E: 4552.206814 0003 0018 54
E: 4552.206814 0000 0000 0
E: 4552.212272 0003 002f 0
E: 4552.212272 0003 0035 373
E: 4552.212272 0003 003a 52
E: 4552.212272 0003 001c 3
E: 4552.212272 0003 0030 225
E: 4552.212272 0003 0031 222
E: 4552.212272 0003 002f 1
E: 4552.212272 0003 0035 337
E: 4552.212272 0003 0036 1174
E: 4552.212272 0003 0030 225
E: 4552.212272 0003 0031 222
E: 4552.212272 0003 0000 373
E: 4552.212272 0003 0018 52
E: 4552.212272 0000 0000 0
E: 4552.218261 0003 002f 0
E: 4552.218261 0003 0035 434
E: 4552.218261 0003 0036 541
E: 4552.218261 0003 002f 1
E: 4552.218261 0003 0035 402
E: 4552.218261 0003 0036 1170
E: 4552.218261 0003 0000 434
E: 4552.218261 0003 0001 541
E: 4552.218261 0000 0000 0
E: 4552.224223 0003 002f 0
E: 4552.224223 0003 0035 491
E: 4552.224223 0003 0036 537
E: 4552.224223 0003 003a 53
E: 4552.224223 0003 002f 1
E: 4552.224223 0003 0035 457
E: 4552.224223 0003 0036 1167
E: 4552.224223 0003 003a 48
E: 4552.224223 0003 0000 491
E: 4552.224223 0003 0001 537
E: 4552.224223 0003 0018 53
E: 4552.224223 0000 0000 0
E: 4552.231459 0003 002f 0
E: 4552.231459 0003 0035 552
E: 4552.231459 0003 003a 52
E: 4552.231459 0003 002f 1
E: 4552.231459 0003 0035 509
E: 4552.231459 0003 0036 1170
E: 4552.231459 0003 003a 47
E: 4552.231459 0003 0000 552
E: 4552.231459 0003 0018 52
E: 4552.231459 0000 0000 0
E: 4552.236482 0003 002f 0
E: 4552.236482 0003 0035 613
E: 4552.236482 0003 0036 528
E: 4552.236482 0003 003a 53
E: 4552.236482 0003 001c 4
E: 4552.236482 0003 0030 300
E: 4552.236482 0003 002f 1
E: 4552.236482 0003 0035 584
E: 4552.236482 0003 0036 1164
E: 4552.236482 0003 001c 3
E: 4552.236482 0003 0000 613
E: 4552.236482 0003 0001 528
E: 4552.236482 0003 0018 53
E: 4552.236482 0000 0000 0
E: 4552.244758 0003 002f 0
E: 4552.244758 0003 0035 668
E: 4552.244758 0003 0036 527
E: 4552.244758 0003 003a 54
E: 4552.244758 0003 0030 225
E: 4552.244758 0003 002f 1
E: 4552.244758 0003 0035 630
E: 4552.244758 0003 0036 1157
E: 4552.244758 0003 003a 46
E: 4552.244758 0003 001c 2
E: 4552.244758 0003 0030 222
E: 4552.244758 0003 0031 150
E: 4552.244758 0003 0000 668
E: 4552.244758 0003 0001 527
E: 4552.244758 0003 0018 54
E: 4552.244758 0000 0000 0
E: 4552.253303 0003 002f 0
E: 4552.253303 0003 0035 761
E: 4552.253303 0003 0036 514
E: 4552.253303 0003 001c 4
E: 4552.253303 0003 0030 300
E: 4552.253303 0003 002f 1
E: 4552.253303 0003 0035 718
E: 4552.253303 0003 0036 1145
E: 4552.253303 0003 001c 3
E: 4552.253303 0003 0030 225
E: 4552.253303 0003 0031 222
E: 4552.253303 0003 0000 761
E: 4552.253303 0003 0001 514
E: 4552.253303 0000 0000 0
E: 4552.255606 0003 002f 0
E: 4552.255606 0003 0035 826
E: 4552.255606 0003 0036 508
E: 4552.255606 0003 003a 52
E: 4552.255606 0003 0030 225
E: 4552.255606 0003 002f 1
E: 4552.255606 0003 0035 785
E: 4552.255606 0003 0036 1140
E: 4552.255606 0003 003a 44
E: 4552.255606 0003 001c 2
E: 4552.255606 0003 0030 222
E: 4552.255606 0003 0031 150
E: 4552.255606 0003 0000 826
E: 4552.255606 0003 0001 508
E: 4552.255606 0003 0018 52
E: 4552.255606 0000 0000 0
E: 4552.261355 0003 002f 0
E: 4552.261355 0003 0035 893
E: 4552.261355 0003 0036 503
E: 4552.261355 0003 003a 51
E: 4552.261355 0003 001c 3
E: 4552.261355 0003 002f 1
E: 4552.261355 0003 0035 853
E: 4552.261355 0003 0036 1130
E: 4552.261355 0003 003a 45
E: 4552.261355 0003 0030 225
E: 4552.261355 0003 0031 222
E: 4552.261355 0003 0000 893
E: 4552.261355 0003 0001 503
E: 4552.261355 0003 0018 51
E: 4552.261355 0000 0000 0
E: 4552.267111 0003 002f 0
E: 4552.267111 0003 0035 946
E: 4552.267111 0003 0036 496
E: 4552.267111 0003 003a 53
E: 4552.267111 0003 002f 1
E: 4552.267111 0003 0035 918
E: 4552.267111 0003 0036 1126
E: 4552.267111 0003 001c 2
E: 4552.267111 0003 0030 222
E: 4552.267111 0003 0031 150
E: 4552.267111 0003 0000 946
E: 4552.267111 0003 0001 496
E: 4552.267111 0003 0018 53
E: 4552.267111 0000 0000 0
E: 4552.272960 0003 002f 0
E: 4552.272960 0003 0035 1013
E: 4552.272960 0003 0036 490
E: 4552.272960 0003 003a 52
E: 4552.272960 0003 001c 3
E: 4552.272960 0003 002f 1
E: 4552.272960 0003 0035 965
E: 4552.272960 0003 0036 1116
E: 4552.272960 0003 003a 46
E: 4552.272960 0003 001c 2
E: 4552.272960 0003 0000 1013
E: 4552.272960 0003 0001 490
E: 4552.272960 0003 0018 52
E: 4552.272960 0000 0000 0
E: 4552.278412 0003 002f 0
E: 4552.278412 0003 0035 1079
E: 4552.278412 0003 0036 485
E: 4552.278412 0003 003a 53
E: 4552.278412 0003 001c 4
E: 4552.278412 0003 0030 300
E: 4552.278412 0003 002f 1
E: 4552.278412 0003 0035 1026
E: 4552.278412 0003 0036 1114
E: 4552.278412 0003 003a 45
E: 4552.278412 0003 001c 3
E: 4552.278412 0003 0030 225
E: 4552.278412 0003 0031 222
E: 4552.278412 0003 0000 1079
E: 4552.278412 0003 0001 485
E: 4552.278412 0003 0018 53
E: 4552.278412 0000 0000 0
E: 4552.284161 0003 002f 0
E: 4552.284161 0003 0035 1138
E: 4552.284161 0003 0036 481
E: 4552.284161 0003 003a 54
E: 4552.284161 0003 0030 225
E: 4552.284161 0003 002f 1
E: 4552.284161 0003 0035 1085
E: 4552.284161 0003 0036 1104
E: 4552.284161 0003 003a 47
E: 4552.284161 0003 001c 2
E: 4552.284161 0003 0030 222
E: 4552.284161 0003 0031 150
E: 4552.284161 0003 0000 1138
E: 4552.284161 0003 0001 481
E: 4552.284161 0003 0018 54
E: 4552.284161 0000 0000 0
E: 4552.289918 0003 002f 0
E: 4552.289918 0003 0035 1218
E: 4552.289918 0003 0036 473
E: 4552.289918 0003 001c 3
E: 4552.289918 0003 002f 1
E: 4552.289918 0003 0035 1151
E: 4552.289918 0003 0036 1099
E: 4552.289918 0003 003a 48
E: 4552.289918 0003 0030 225
E: 4552.289918 0003 0031 222
E: 4552.289918 0003 0000 1218
E: 4552.289918 0003 0001 473
E: 4552.289918 0000 0000 0
E: 4552.298575 0003 002f 0
E: 4552.298575 0003 0035 1273
E: 4552.298575 0003 0036 465
E: 4552.298575 0003 003a 55
E: 4552.298575 0003 0030 296
E: 4552.298575 0003 0031 225
E: 4552.298575 0003 002f 1
E: 4552.298575 0003 0035 1220
E: 4552.298575 0003 0036 1092
E: 4552.298575 0003 0000 1273
E: 4552.298575 0003 0001 465
E: 4552.298575 0003 0018 55
E: 4552.298575 0000 0000 0
E: 4552.304093 0003 002f 0
E: 4552.304093 0003 0035 1377
E: 4552.304093 0003 0036 455
E: 4552.304093 0003 003a 56
E: 4552.304093 0003 001c 4
E: 4552.304093 0003 0030 300
E: 4552.304093 0003 0031 296
E: 4552.304093 0003 002f 1
E: 4552.304093 0003 0035 1303
E: 4552.304093 0003 0036 1076
E: 4552.304093 0003 003a 47
E: 4552.304093 0003 001c 3
E: 4552.304093 0003 0031 148
E: 4552.304093 0003 0000 1377
E: 4552.304093 0003 0001 455
E: 4552.304093 0003 0018 56
E: 4552.304093 0000 0000 0
E: 4552.309845 0003 002f 0
E: 4552.309845 0003 0035 1439
E: 4552.309845 0003 0036 452
E: 4552.309845 0003 003a 57
E: 4552.309845 0003 0030 296
E: 4552.309845 0003 0031 225
E: 4552.309845 0003 002f 1
E: 4552.309845 0003 0035 1379
E: 4552.309845 0003 0036 1073
E: 4552.309845 0003 003a 48
E: 4552.309845 0003 0000 1439
E: 4552.309845 0003 0001 452
E: 4552.309845 0003 0018 57
E: 4552.309845 0000 0000 0
E: 4552.314825 0003 002f 0
E: 4552.314825 0003 0035 1511
E: 4552.314825 0003 0036 442
E: 4552.314825 0003 003a 55
E: 4552.314825 0003 0030 225
E: 4552.314825 0003 0031 222
E: 4552.314825 0003 002f 1
E: 4552.314825 0003 0035 1442
E: 4552.314825 0003 0036 1066
E: 4552.314825 0003 0000 1511
E: 4552.314825 0003 0001 442
E: 4552.314825 0003 0018 55
E: 4552.314825 0000 0000 0
E: 4552.320656 0003 002f 0
E: 4552.320656 0003 0035 1568
E: 4552.320656 0003 0036 440
E: 4552.320656 0003 002f 1
E: 4552.320656 0003 0035 1512
E: 4552.320656 0003 0036 1063
E: 4552.320656 0003 0000 1568
E: 4552.320656 0003 0001 440
E: 4552.320656 0000 0000 0
E: 4552.326517 0003 002f 0
E: 4552.326517 0003 0035 1630
E: 4552.326517 0003 0036 435
E: 4552.326517 0003 002f 1
E: 4552.326517 0003 0035 1568
E: 4552.326517 0003 0036 1060
E: 4552.326517 0003 001c 2
E: 4552.326517 0003 0030 150
E: 4552.326517 0003 0000 1630
E: 4552.326517 0003 0001 435
E: 4552.326517 0000 0000 0
E: 4552.332540 0003 002f 0
E: 4552.332540 0003 0035 1717
E: 4552.332540 0003 0036 426
E: 4552.332540 0003 0030 222
E: 4552.332540 0003 0031 150
E: 4552.332540 0003 002f 1
E: 4552.332540 0003 0035 1635
E: 4552.332540 0003 0036 1053
E: 4552.332540 0003 001c 3
E: 4552.332540 0003 0030 225
E: 4552.332540 0003 0031 222
E: 4552.332540 0003 0000 1717
E: 4552.332540 0003 0001 426
E: 4552.332540 0000 0000 0
E: 4552.338237 0003 002f 0
E: 4552.338237 0003 0035 1780
E: 4552.338237 0003 0036 429
E: 4552.338237 0003 0030 225
E: 4552.338237 0003 0031 222
E: 4552.338237 0003 002f 1
E: 4552.338237 0003 0035 1712
E: 4552.338237 0003 0036 1048
E: 4552.338237 0003 001c 2
E: 4552.338237 0003 0030 222
E: 4552.338237 0003 0031 150
E: 4552.338237 0003 0000 1780
E: 4552.338237 0003 0001 429
E: 4552.338237 0000 0000 0
E: 4552.346507 0003 002f 0
E: 4552.346507 0003 0035 1864
E: 4552.346507 0003 0036 421
E: 4552.346507 0003 001c 3
E: 4552.346507 0003 002f 1
E: 4552.346507 0003 0035 1779
E: 4552.346507 0003 0036 1046
E: 4552.346507 0003 0030 225
E: 4552.346507 0003 0031 222
E: 4552.346507 0003 0000 1864
E: 4552.346507 0003 0001 421
E: 4552.346507 0000 0000 0
E: 4552.354068 0003 002f 0
E: 4552.354068 0003 0035 1969
E: 4552.354068 0003 0036 411
E: 4552.354068 0003 002f 1
E: 4552.354068 0003 0035 1897
E: 4552.354068 0003 0036 1035
E: 4552.354068 0003 0000 1969
E: 4552.354068 0003 0001 411
E: 4552.354068 0000 0000 0
E: 4552.358447 0003 002f 0
E: 4552.358447 0003 0035 2050
E: 4552.358447 0003 0036 403
E: 4552.358447 0003 002f 1
E: 4552.358447 0003 0035 1971
E: 4552.358447 0003 0036 1033
E: 4552.358447 0003 0000 2050
E: 4552.358447 0003 0001 403
E: 4552.358447 0000 0000 0
E: 4552.364225 0003 002f 0
E: 4552.364225 0003 0035 2117
E: 4552.364225 0003 003a 53
E: 4552.364225 0003 002f 1
E: 4552.364225 0003 0035 2046
E: 4552.364225 0003 0036 1030
E: 4552.364225 0003 001c 2
E: 4552.364225 0003 0030 222
E: 4552.364225 0003 0031 150
E: 4552.364225 0003 0000 2117
E: 4552.364225 0003 0018 53
E: 4552.364225 0000 0000 0
E: 4552.369990 0003 002f 0
E: 4552.369990 0003 0035 2196
E: 4552.369990 0003 0036 394
E: 4552.369990 0003 003a 54
E: 4552.369990 0003 001c 3
E: 4552.369990 0003 002f 1
E: 4552.369990 0003 0035 2105
E: 4552.369990 0003 0036 1026
E: 4552.369990 0003 0030 225
E: 4552.369990 0003 0031 222
E: 4552.369990 0003 0000 2196
E: 4552.369990 0003 0001 394
E: 4552.369990 0003 0018 54
E: 4552.369990 0000 0000 0
E: 4552.375029 0003 002f 0
E: 4552.375029 0003 0035 2266
E: 4552.375029 0003 0036 398
E: 4552.375029 0003 003a 53
E: 4552.375029 0003 002f 1
E: 4552.375029 0003 0035 2180
E: 4552.375029 0003 0036 1021
E: 4552.375029 0003 0000 2266
E: 4552.375029 0003 0001 398
E: 4552.375029 0003 0018 53
E: 4552.375029 0000 0000 0
E: 4552.380730 0003 002f 0
E: 4552.380730 0003 0035 2342
E: 4552.380730 0003 0036 390
E: 4552.380730 0003 001c 2
E: 4552.380730 0003 0030 222
E: 4552.380730 0003 0031 150
E: 4552.380730 0003 002f 1
E: 4552.380730 0003 0035 2243
E: 4552.380730 0003 001c 3
E: 4552.380730 0003 0000 2342
E: 4552.380730 0003 0001 390
E: 4552.380730 0000 0000 0
E: 4552.386444 0003 002f 0
E: 4552.386444 0003 0035 2398
E: 4552.386444 0003 0036 394
E: 4552.386444 0003 003a 54
E: 4552.386444 0003 0030 225
E: 4552.386444 0003 0031 222
E: 4552.386444 0003 002f 1
E: 4552.386444 0003 0035 2332
E: 4552.386444 0003 0036 1016
E: 4552.386444 0003 003a 47
E: 4552.386444 0003 001c 2
E: 4552.386444 0003 0030 222
E: 4552.386444 0003 0031 150
E: 4552.386444 0003 0000 2398
E: 4552.386444 0003 0001 394
E: 4552.386444 0003 0018 54
E: 4552.386444 0000 0000 0
E: 4552.394650 0003 002f 0
E: 4552.394650 0003 0035 2481
E: 4552.394650 0003 0036 388
E: 4552.394650 0003 003a 52
E: 4552.394650 0003 001c 3
E: 4552.394650 0003 002f 1
E: 4552.394650 0003 0035 2384
E: 4552.394650 0003 0036 1020
E: 4552.394650 0003 003a 46
E: 4552.394650 0003 001c 2
E: 4552.394650 0003 0000 2481
E: 4552.394650 0003 0001 388
E: 4552.394650 0003 0018 52
E: 4552.394650 0000 0000 0
E: 4552.400474 0003 002f 0
E: 4552.400474 0003 0035 2593
E: 4552.400474 0003 0036 397
E: 4552.400474 0003 001c 3
E: 4552.400474 0003 002f 1
E: 4552.400474 0003 0035 2493
E: 4552.400474 0003 0036 1012
E: 4552.400474 0003 0030 225
E: 4552.400474 0003 0031 222
E: 4552.400474 0003 0000 2593
E: 4552.400474 0003 0001 397
E: 4552.400474 0000 0000 0
E: 4552.406135 0003 002f 0
E: 4552.406135 0003 0035 2666
E: 4552.406135 0003 0036 390
E: 4552.406135 0003 001c 2
E: 4552.406135 0003 0030 222
E: 4552.406135 0003 0031 150
E: 4552.406135 0003 002f 1
E: 4552.406135 0003 0035 2557
E: 4552.406135 0003 0036 1013
E: 4552.406135 0003 003a 45
E: 4552.406135 0003 001c 3
E: 4552.406135 0003 0000 2666
E: 4552.406135 0003 0001 390
E: 4552.406135 0000 0000 0
E: 4552.413151 0003 002f 0
E: 4552.413151 0003 0035 2725
E: 4552.413151 0003 003a 51
E: 4552.413151 0003 0030 225
E: 4552.413151 0003 0031 222
E: 4552.413151 0003 002f 1
E: 4552.413151 0003 0035 2650
E: 4552.413151 0003 0036 1010
E: 4552.413151 0003 003a 46
E: 4552.413151 0003 0000 2725
E: 4552.413151 0003 0018 51
E: 4552.413151 0000 0000 0
E: 4552.417948 0003 002f 0
E: 4552.417948 0003 0035 2803
E: 4552.417948 0003 0036 387
E: 4552.417948 0003 002f 1
E: 4552.417948 0003 0035 2701
E: 4552.417948 0003 0036 1005
E: 4552.417948 0003 001c 2
E: 4552.417948 0003 0030 222
E: 4552.417948 0003 0031 150
E: 4552.417948 0003 0000 2803
E: 4552.417948 0003 0001 387
E: 4552.417948 0000 0000 0
E: 4552.423704 0003 002f 0
E: 4552.423704 0003 0035 2864
E: 4552.423704 0003 0036 384
E: 4552.423704 0003 003a 53
E: 4552.423704 0003 001c 3
E: 4552.423704 0003 002f 1
E: 4552.423704 0003 0035 2773
E: 4552.423704 0003 0036 1000
E: 4552.423704 0003 003a 47
E: 4552.423704 0003 0030 225
E: 4552.423704 0003 0031 222
E: 4552.423704 0003 0000 2864
E: 4552.423704 0003 0001 384
E: 4552.423704 0003 0018 53
E: 4552.423704 0000 0000 0
E: 4552.429425 0003 002f 0
E: 4552.429425 0003 0035 2943
E: 4552.429425 0003 0036 380
E: 4552.429425 0003 002f 1
E: 4552.429425 0003 0035 2834
E: 4552.429425 0003 0036 994
E: 4552.429425 0003 001c 2
E: 4552.429425 0003 0030 222
E: 4552.429425 0003 0031 150
E: 4552.429425 0003 0000 2943
E: 4552.429425 0003 0001 380
E: 4552.429425 0000 0000 0
E: 4552.434672 0003 002f 0
E: 4552.434672 0003 0035 2994
E: 4552.434672 0003 0036 383
E: 4552.434672 0003 003a 54
E: 4552.434672 0003 001c 3
E: 4552.434672 0003 002f 1
E: 4552.434672 0003 0035 2906
E: 4552.434672 0003 0036 993
E: 4552.434672 0003 0030 225
E: 4552.434672 0003 0031 222
E: 4552.434672 0003 0000 2994
E: 4552.434672 0003 0001 383
E: 4552.434672 0003 0018 54
E: 4552.434672 0000 0000 0
E: 4552.442849 0003 002f 0
E: 4552.442849 0003 0035 3079
E: 4552.442849 0003 003a 53
E: 4552.442849 0003 002f 1
E: 4552.442849 0003 0035 2974
E: 4552.442849 0003 0036 988
E: 4552.442849 0003 001c 2
E: 4552.442849 0003 0030 222
E: 4552.442849 0003 0031 150
E: 4552.442849 0003 0000 3079
E: 4552.442849 0003 0018 53
E: 4552.442849 0000 0000 0
E: 4552.448562 0003 002f 0
E: 4552.448562 0003 0035 3209
E: 4552.448562 0003 0036 375
E: 4552.448562 0003 003a 52
E: 4552.448562 0003 0030 222
E: 4552.448562 0003 0031 150
E: 4552.448562 0003 002f 1
E: 4552.448562 0003 0035 3054
E: 4552.448562 0003 0036 990
E: 4552.448562 0003 001c 3
E: 4552.448562 0003 0030 225
E: 4552.448562 0003 0031 222
E: 4552.448562 0003 0000 3209
E: 4552.448562 0003 0001 375
E: 4552.448562 0003 0018 52
E: 4552.448562 0000 0000 0
E: 4552.454356 0003 002f 0
E: 4552.454356 0003 0035 3290
E: 4552.454356 0003 0036 376
E: 4552.454356 0003 003a 48
E: 4552.454356 0003 001c 2
E: 4552.454356 0003 002f 1
E: 4552.454356 0003 0035 3129
E: 4552.454356 0003 0036 985
E: 4552.454356 0003 001c 3
E: 4552.454356 0003 0000 3290
E: 4552.454356 0003 0001 376
E: 4552.454356 0003 0018 48
E: 4552.454356 0000 0000 0
E: 4552.459814 0003 002f 0
E: 4552.459814 0003 0035 3299
E: 4552.459814 0003 0036 387
E: 4552.459814 0003 003a 43
E: 4552.459814 0003 001c 1
E: 4552.459814 0003 0031 75
E: 4552.459814 0003 002f 1
E: 4552.459814 0003 0035 3226
E: 4552.459814 0003 0036 989
E: 4552.459814 0003 001c 2
E: 4552.459814 0003 0030 222
E: 4552.459814 0003 0031 150
E: 4552.459814 0003 0000 3299
E: 4552.459814 0003 0001 387
E: 4552.459814 0003 0018 43
E: 4552.459814 0000 0000 0
E: 4552.464645 0003 002f 0
E: 4552.464645 0003 003a 41
E: 4552.464645 0003 001c 1
E: 4552.464645 0003 0030 75
E: 4552.464645 0003 0031 74
E: 4552.464645 0003 001c 2
E: 4552.464645 0003 0018 41
E: 4552.464645 0000 0000 0
E: 4552.469014 0003 003a 40
E: 4552.469014 0003 001c 1
E: 4552.469014 0003 002f 1
E: 4552.469014 0003 0035 3299
E: 4552.469014 0003 0036 991
E: 4552.469014 0003 003a 42
E: 4552.469014 0003 0031 75
E: 4552.469014 0003 0018 40
E: 4552.469014 0000 0000 0
E: 4552.474085 0003 002f 0
E: 4552.474085 0003 0039 -1
E: 4552.474085 0003 002f 1
E: 4552.474085 0003 003a 39
E: 4552.474085 0003 0030 75
E: 4552.474085 0003 0031 74
E: 4552.474085 0001 0145 1
E: 4552.474085 0001 014d 0
E: 4552.474085 0003 0001 991
E: 4552.474085 0003 0018 39
E: 4552.474085 0000 0000 0
E: 4552.479172 0003 0039 -1
E: 4552.479172 0001 014a 0
E: 4552.479172 0001 0145 0
E: 4552.479172 0003 0018 0
E: 4552.479172 0000 0000 0
E: 4554.154326 0003 002f 0
E: 4554.154326 0003 0039 50
E: 4554.154326 0003 0035 1470
E: 4554.154326 0003 0036 1
E: 4554.154326 0003 003a 41
E: 4554.154326 0003 001c 3
E: 4554.154326 0003 0030 225
E: 4554.154326 0003 0031 148
E: 4554.154326 0001 014a 1
E: 4554.154326 0001 0145 1
E: 4554.154326 0003 0000 1470
E: 4554.154326 0003 0001 1
E: 4554.154326 0003 0018 41
E: 4554.154326 0000 0000 0
E: 4554.159795 0003 003a 42
E: 4554.159795 0003 0018 42
E: 4554.159795 0000 0000 0
E: 4554.163866 0003 003a 43
E: 4554.163866 0003 0018 43
E: 4554.163866 0000 0000 0
E: 4554.168386 0003 0035 1468
E: 4554.168386 0003 0036 15
E: 4554.168386 0003 003a 45
E: 4554.168386 0003 002f 1
E: 4554.168386 0003 0039 51
E: 4554.168386 0003 0035 2181
E: 4554.168386 0003 0036 0
E: 4554.168386 0003 003a 43
E: 4554.168386 0003 0030 225
E: 4554.168386 0003 0031 148
E: 4554.168386 0001 0145 0
E: 4554.168386 0001 014d 1
E: 4554.168386 0003 0000 1468
E: 4554.168386 0003 0001 15
E: 4554.168386 0003 0018 45
E: 4554.168386 0000 0000 0
E: 4554.173135 0003 002f 0
E: 4554.173135 0003 0035 1466
E: 4554.173135 0003 0036 44
E: 4554.173135 0003 003a 48
E: 4554.173135 0003 0031 222
E: 4554.173135 0003 002f 1
E: 4554.173135 0003 003a 44
E: 4554.173135 0003 0000 1466
E: 4554.173135 0003 0001 44
E: 4554.173135 0003 0018 48
E: 4554.173135 0000 0000 0
E: 4554.177866 0003 002f 0
E: 4554.177866 0003 0035 1463
E: 4554.177866 0003 0036 112
E: 4554.177866 0003 003a 51
E: 4554.177866 0003 002f 1
E: 4554.177866 0003 0036 10
E: 4554.177866 0003 003a 46
E: 4554.177866 0003 0000 1463
E: 4554.177866 0003 0001 112
E: 4554.177866 0003 0018 51
E: 4554.177866 0000 0000 0
E: 4554.182843 0003 002f 0
E: 4554.182843 0003 0035 1464
E: 4554.182843 0003 0036 195
E: 4554.182843 0003 002f 1
E: 4554.182843 0003 0035 2183
E: 4554.182843 0003 0036 46
E: 4554.182843 0003 003a 50
E: 4554.182843 0003 0031 222
E: 4554.182843 0003 0000 1464
E: 4554.182843 0003 0001 195
E: 4554.182843 0000 0000 0
E: 4554.188725 0003 002f 0
E: 4554.188725 0003 0035 1463
E: 4554.188725 0003 0036 229
E: 4554.188725 0003 002f 1
E: 4554.188725 0003 0035 2185
E: 4554.188725 0003 0036 114
E: 4554.188725 0003 003a 52
E: 4554.188725 0003 0000 1463
E: 4554.188725 0003 0001 229
E: 4554.188725 0000 0000 0
E: 4554.196292 0003 002f 0
E: 4554.196292 0003 0035 1468
E: 4554.196292 0003 0036 273
E: 4554.196292 0003 0030 296
E: 4554.196292 0003 0031 225
E: 4554.196292 0003 002f 1
E: 4554.196292 0003 0035 2193
E: 4554.196292 0003 0036 189
E: 4554.196292 0003 003a 53
E: 4554.196292 0003 001c 4
E: 4554.196292 0003 0030 300
E: 4554.196292 0003 0000 1468
E: 4554.196292 0003 0001 273
E: 4554.196292 0000 0000 0
E: 4554.201496 0003 002f 0
E: 4554.201496 0003 0035 1465
E: 4554.201496 0003 0036 334
E: 4554.201496 0003 003a 52
E: 4554.201496 0003 001c 3
E: 4554.201496 0003 0030 225
E: 4554.201496 0003 0031 222
E: 4554.201496 0003 002f 1
E: 4554.201496 0003 0036 258
E: 4554.201496 0003 003a 54
E: 4554.201496 0003 001c 4
E: 4554.201496 0003 0000 1465
E: 4554.201496 0003 0001 334
E: 4554.201496 0003 0018 52
E: 4554.201496 0000 0000 0
E: 4554.206651 0003 002f 0
E: 4554.206651 0003 0035 1467
E: 4554.206651 0003 0036 375
E: 4554.206651 0003 003a 51
E: 4554.206651 0003 001c 3
E: 4554.206651 0003 002f 1
E: 4554.206651 0003 0035 2186
E: 4554.206651 0003 0036 301
E: 4554.206651 0003 003a 57
E: 4554.206651 0003 001c 4
E: 4554.206651 0003 0031 296
E: 4554.206651 0003 0000 1467
E: 4554.206651 0003 0001 375
E: 4554.206651 0003 0018 51
E: 4554.206651 0000 0000 0
E: 4554.212166 0003 002f 0
E: 4554.212166 0003 0035 1469
E: 4554.212166 0003 0036 419
E: 4554.212166 0003 001c 3
E: 4554.212166 0003 002f 1
E: 4554.212166 0003 0036 343
E: 4554.212166 0003 003a 55
E: 4554.212166 0003 0030 225
E: 4554.212166 0003 0031 222
E: 4554.212166 0003 0000 1469
E: 4554.212166 0003 0001 419
E: 4554.212166 0000 0000 0
E: 4554.218006 0003 002f 0
E: 4554.218006 0003 0035 1461
E: 4554.218006 0003 0036 468
E: 4554.218006 0003 003a 53
E: 4554.218006 0003 002f 1
E: 4554.218006 0003 0036 392
E: 4554.218006 0003 003a 53
E: 4554.218006 0003 001c 4
E: 4554.218006 0003 0030 300
E: 4554.218006 0003 0000 1461
E: 4554.218006 0003 0001 468
E: 4554.218006 0003 0018 53
E: 4554.218006 0000 0000 0
E: 4554.223847 0003 002f 0
E: 4554.223847 0003 0036 511
E: 4554.223847 0003 003a 52
E: 4554.223847 0003 001c 3
E: 4554.223847 0003 002f 1
E: 4554.223847 0003 0035 2181
E: 4554.223847 0003 0036 446
E: 4554.223847 0003 003a 56
E: 4554.223847 0003 0030 296
E: 4554.223847 0003 0031 225
E: 4554.223847 0003 0001 511
E: 4554.223847 0003 0018 52
E: 4554.223847 0000 0000 0
E: 4554.229813 0003 002f 0
E: 4554.229813 0003 0036 563
E: 4554.229813 0003 003a 51
E: 4554.229813 0003 002f 1
E: 4554.229813 0003 0035 2185
E: 4554.229813 0003 0036 498
E: 4554.229813 0003 003a 55
E: 4554.229813 0003 001c 4
E: 4554.229813 0003 0030 300
E: 4554.229813 0003 0031 222
E: 4554.229813 0003 0001 563
E: 4554.229813 0003 0018 51
E: 4554.229813 0000 0000 0
E: 4554.235683 0003 002f 0
E: 4554.235683 0003 0035 1457
E: 4554.235683 0003 0036 619
E: 4554.235683 0003 003a 53
E: 4554.235683 0003 001c 3
E: 4554.235683 0003 002f 1
E: 4554.235683 0003 0035 2178
E: 4554.235683 0003 0036 552
E: 4554.235683 0003 003a 54
E: 4554.235683 0003 001c 4
E: 4554.235683 0003 0000 1457
E: 4554.235683 0003 0001 619
E: 4554.235683 0003 0018 53
E: 4554.235683 0000 0000 0
E: 4554.241511 0003 002f 0
E: 4554.241511 0003 0035 1461
E: 4554.241511 0003 0036 667
E: 4554.241511 0003 003a 52
E: 4554.241511 0003 001c 3
E: 4554.241511 0003 002f 1
E: 4554.241511 0003 0035 2174
E: 4554.241511 0003 0036 600
E: 4554.241511 0003 0030 296
E: 4554.241511 0003 0031 225
E: 4554.241511 0003 0000 1461
E: 4554.241511 0003 0001 667
E: 4554.241511 0003 0018 52
E: 4554.241511 0000 0000 0
E: 4554.249021 0003 002f 0
E: 4554.249021 0003 0036 724
E: 4554.249021 0003 003a 51
E: 4554.249021 0003 002f 1
E: 4554.249021 0003 0035 2177
E: 4554.249021 0003 0036 653
E: 4554.249021 0003 003a 52
E: 4554.249021 0003 0030 225
E: 4554.249021 0003 0031 222
E: 4554.249021 0003 0001 724
E: 4554.249021 0003 0018 51
E: 4554.249021 0000 0000 0
E: 4554.253912 0003 002f 0
E: 4554.253912 0003 0035 1451
E: 4554.253912 0003 0036 798
E: 4554.253912 0003 003a 52
E: 4554.253912 0003 001c 4
E: 4554.253912 0003 0030 300
E: 4554.253912 0003 002f 1
E: 4554.253912 0003 0035 2174
E: 4554.253912 0003 0036 731
E: 4554.253912 0003 003a 53
E: 4554.253912 0003 0030 300
E: 4554.253912 0003 0000 1451
E: 4554.253912 0003 0001 798
E: 4554.253912 0003 0018 52
E: 4554.253912 0000 0000 0
E: 4554.259124 0003 002f 0
E: 4554.259124 0003 0035 1456
E: 4554.259124 0003 0036 847
E: 4554.259124 0003 003a 51
E: 4554.259124 0003 001c 3
E: 4554.259124 0003 0030 225
E: 4554.259124 0003 002f 1
E: 4554.259124 0003 0035 2171
E: 4554.259124 0003 0036 779
E: 4554.259124 0003 003a 54
E: 4554.259124 0003 0030 225
E: 4554.259124 0003 0000 1456
E: 4554.259124 0003 0001 847
E: 4554.259124 0003 0018 51
E: 4554.259124 0000 0000 0
E: 4554.264968 0003 002f 0
E: 4554.264968 0003 0035 1449
E: 4554.264968 0003 0036 895
E: 4554.264968 0003 003a 53
E: 4554.264968 0003 0030 296
E: 4554.264968 0003 0031 225
E: 4554.264968 0003 002f 1
E: 4554.264968 0003 0035 2170
E: 4554.264968 0003 0036 821
E: 4554.264968 0003 003a 52
E: 4554.264968 0003 0000 1449
E: 4554.264968 0003 0001 895
E: 4554.264968 0003 0018 53
E: 4554.264968 0000 0000 0
E: 4554.270797 0003 002f 0
E: 4554.270797 0003 0035 1448
E: 4554.270797 0003 0036 939
E: 4554.270797 0003 003a 54
E: 4554.270797 0003 0030 225
E: 4554.270797 0003 0031 222
E: 4554.270797 0003 002f 1
E: 4554.270797 0003 0035 2166
E: 4554.270797 0003 0036 874
E: 4554.270797 0003 003a 51
E: 4554.270797 0003 0000 1448
E: 4554.270797 0003 0001 939
E: 4554.270797 0003 0018 54
E: 4554.270797 0000 0000 0
E: 4554.276651 0003 002f 0
E: 4554.276651 0003 0035 1455
E: 4554.276651 0003 0036 999
E: 4554.276651 0003 003a 52
E: 4554.276651 0003 0030 296
E: 4554.276651 0003 0031 225
E: 4554.276651 0003 002f 1
E: 4554.276651 0003 0035 2172
E: 4554.276651 0003 0036 926
E: 4554.276651 0003 003a 53
E: 4554.276651 0003 0000 1455
E: 4554.276651 0003 0001 999
E: 4554.276651 0003 0018 52
E: 4554.276651 0000 0000 0
E: 4554.282491 0003 002f 0
E: 4554.282491 0003 0035 1450
E: 4554.282491 0003 0036 1051
E: 4554.282491 0003 003a 53
E: 4554.282491 0003 002f 1
E: 4554.282491 0003 0035 2173
E: 4554.282491 0003 0036 974
E: 4554.282491 0003 003a 52
E: 4554.282491 0003 0000 1450
E: 4554.282491 0003 0001 1051
E: 4554.282491 0003 0018 53
E: 4554.282491 0000 0000 0
E: 4554.288391 0003 002f 0
E: 4554.288391 0003 0035 1448
E: 4554.288391 0003 0036 1100
E: 4554.288391 0003 003a 54
E: 4554.288391 0003 0030 225
E: 4554.288391 0003 0031 222
E: 4554.288391 0003 002f 1
E: 4554.288391 0003 0036 1030
E: 4554.288391 0003 003a 51
E: 4554.288391 0003 0000 1448
E: 4554.288391 0003 0001 1100
E: 4554.288391 0003 0018 54
E: 4554.288391 0000 0000 0
E: 4554.295932 0003 002f 0
E: 4554.295932 0003 0035 1450
E: 4554.295932 0003 0036 1158
E: 4554.295932 0003 003a 52
E: 4554.295932 0003 002f 1
E: 4554.295932 0003 0035 2172
E: 4554.295932 0003 0036 1081
E: 4554.295932 0003 0000 1450
E: 4554.295932 0003 0001 1158
E: 4554.295932 0003 0018 52
E: 4554.295932 0000 0000 0
E: 4554.301036 0003 002f 0
E: 4554.301036 0003 0035 1446
E: 4554.301036 0003 0036 1244
E: 4554.301036 0003 002f 1
E: 4554.301036 0003 0035 2167
E: 4554.301036 0003 0036 1166
E: 4554.301036 0003 0000 1446
E: 4554.301036 0003 0001 1244
E: 4554.301036 0000 0000 0
E: 4554.305952 0003 002f 0
E: 4554.305952 0003 0035 1443
E: 4554.305952 0003 0036 1287
E: 4554.305952 0003 003a 51
E: 4554.305952 0003 002f 1
E: 4554.305952 0003 0036 1217
E: 4554.305952 0003 0000 1443
E: 4554.305952 0003 0001 1287
E: 4554.305952 0003 0018 51
E: 4554.305952 0000 0000 0
E: 4554.311752 0003 002f 0
E: 4554.311752 0003 0035 1445
E: 4554.311752 0003 0036 1342
E: 4554.311752 0003 003a 52
E: 4554.311752 0003 0030 296
E: 4554.311752 0003 0031 225
E: 4554.311752 0003 002f 1
E: 4554.311752 0003 0035 2163
E: 4554.311752 0003 0036 1257
E: 4554.311752 0003 003a 50
E: 4554.311752 0003 0000 1445
E: 4554.311752 0003 0001 1342
E: 4554.311752 0003 0018 52
E: 4554.311752 0000 0000 0
E: 4554.317658 0003 002f 0
E: 4554.317658 0003 0035 1441
E: 4554.317658 0003 0036 1389
E: 4554.317658 0003 0030 225
E: 4554.317658 0003 0031 222
E: 4554.317658 0003 002f 1
E: 4554.317658 0003 0035 2162
E: 4554.317658 0003 0036 1312
E: 4554.317658 0003 003a 49
E: 4554.317658 0003 0000 1441
E: 4554.317658 0003 0001 1389
E: 4554.317658 0000 0000 0
E: 4554.323507 0003 002f 0
E: 4554.323507 0003 0036 1441
E: 4554.323507 0003 003a 51
E: 4554.323507 0003 002f 1
E: 4554.323507 0003 0035 2167
E: 4554.323507 0003 0036 1366
E: 4554.323507 0003 001c 4
E: 4554.323507 0003 0030 300
E: 4554.323507 0003 0031 148
E: 4554.323507 0003 0001 1441
E: 4554.323507 0003 0018 51
E: 4554.323507 0000 0000 0
E: 4554.329414 0003 002f 0
E: 4554.329414 0003 0035 1440
E: 4554.329414 0003 0036 1503
E: 4554.329414 0003 003a 52
E: 4554.329414 0003 001c 3
E: 4554.329414 0003 002f 1
E: 4554.329414 0003 0035 2163
E: 4554.329414 0003 0036 1425
E: 4554.329414 0003 0030 225
E: 4554.329414 0003 0031 222
E: 4554.329414 0003 0000 1440
E: 4554.329414 0003 0001 1503
E: 4554.329414 0003 0018 52
E: 4554.329414 0000 0000 0
E: 4554.335219 0003 002f 0
E: 4554.335219 0003 0035 1433
E: 4554.335219 0003 0036 1556
E: 4554.335219 0003 003a 53
E: 4554.335219 0003 001c 4
E: 4554.335219 0003 0030 300
E: 4554.335219 0003 002f 1
E: 4554.335219 0003 0035 2160
E: 4554.335219 0003 0036 1491
E: 4554.335219 0003 003a 50
E: 4554.335219 0003 0030 300
E: 4554.335219 0003 0000 1433
E: 4554.335219 0003 0001 1556
E: 4554.335219 0003 0018 53
E: 4554.335219 0000 0000 0
E: 4554.342823 0003 002f 0
E: 4554.342823 0003 0035 1431
E: 4554.342823 0003 0036 1611
E: 4554.342823 0003 003a 52
E: 4554.342823 0003 002f 1
E: 4554.342823 0003 0035 2159
E: 4554.342823 0003 0036 1539
E: 4554.342823 0003 001c 3
E: 4554.342823 0003 0030 225
E: 4554.342823 0003 0000 1431
E: 4554.342823 0003 0001 1611
E: 4554.342823 0003 0018 52
E: 4554.342823 0000 0000 0
E: 4554.347596 0003 002f 0
E: 4554.347596 0003 0035 1434
E: 4554.347596 0003 0036 1698
E: 4554.347596 0003 003a 54
E: 4554.347596 0003 001c 4
E: 4554.347596 0003 002f 1
E: 4554.347596 0003 0035 2156
E: 4554.347596 0003 0036 1628
E: 4554.347596 0003 001c 3
E: 4554.347596 0003 0000 1434
E: 4554.347596 0003 0001 1698
E: 4554.347596 0003 0018 54
E: 4554.347596 0000 0000 0
E: 4554.352770 0003 002f 0
E: 4554.352770 0003 0035 1438
E: 4554.352770 0003 0036 1737
E: 4554.352770 0003 003a 53
E: 4554.352770 0003 0030 225
E: 4554.352770 0003 002f 1
E: 4554.352770 0003 0036 1669
E: 4554.352770 0003 0031 148
E: 4554.352770 0003 0000 1438
E: 4554.352770 0003 0001 1737
E: 4554.352770 0003 0018 53
E: 4554.352770 0000 0000 0
E: 4554.358593 0003 002f 0
E: 4554.358593 0003 0035 1430
E: 4554.358593 0003 0036 1779
E: 4554.358593 0003 001c 4
E: 4554.358593 0003 0030 300
E: 4554.358593 0003 002f 1
E: 4554.358593 0003 0035 2162
E: 4554.358593 0003 0036 1713
E: 4554.358593 0003 001c 3
E: 4554.358593 0003 0031 222
E: 4554.358593 0003 0000 1430
E: 4554.358593 0003 0001 1779
E: 4554.358593 0000 0000 0
E: 4554.364453 0003 002f 0
E: 4554.364453 0003 0035 1433
E: 4554.364453 0003 0036 1836
E: 4554.364453 0003 003a 54
E: 4554.364453 0003 001c 4
E: 4554.364453 0003 002f 1
E: 4554.364453 0003 0035 2158
E: 4554.364453 0003 0036 1765
E: 4554.364453 0003 001c 3
E: 4554.364453 0003 0000 1433
E: 4554.364453 0003 0001 1836
E: 4554.364453 0003 0018 54
E: 4554.364453 0000 0000 0
E: 4554.370378 0003 002f 0
E: 4554.370378 0003 0035 1431
E: 4554.370378 0003 0036 1917
E: 4554.370378 0003 003a 52
E: 4554.370378 0003 0030 225
E: 4554.370378 0003 0031 148
E: 4554.370378 0003 002f 1
E: 4554.370378 0003 0035 2155
E: 4554.370378 0003 0036 1812
E: 4554.370378 0003 0000 1431
E: 4554.370378 0003 0001 1917
E: 4554.370378 0003 0018 52
E: 4554.370378 0000 0000 0
E: 4554.376210 0003 002f 0
E: 4554.376210 0003 0035 1427
E: 4554.376210 0003 0036 1962
E: 4554.376210 0003 003a 49
E: 4554.376210 0003 001c 4
E: 4554.376210 0003 0030 300
E: 4554.376210 0003 002f 1
E: 4554.376210 0003 0036 1897
E: 4554.376210 0003 001c 3
E: 4554.376210 0003 0031 148
E: 4554.376210 0003 0000 1427
E: 4554.376210 0003 0001 1962
E: 4554.376210 0003 0018 49
E: 4554.376210 0000 0000 0
E: 4554.382043 0003 002f 0
E: 4554.382043 0003 0035 1425
E: 4554.382043 0003 0036 1976
E: 4554.382043 0003 003a 46
E: 4554.382043 0003 001c 2
E: 4554.382043 0003 0030 150
E: 4554.382043 0003 002f 1
E: 4554.382043 0003 0035 2158
E: 4554.382043 0003 0036 1954
E: 4554.382043 0003 003a 48
E: 4554.382043 0003 001c 3
E: 4554.382043 0003 0000 1425
E: 4554.382043 0003 0001 1976
E: 4554.382043 0003 0018 46
E: 4554.382043 0000 0000 0
E: 4554.387922 0003 002f 0
E: 4554.387922 0003 0035 1427
E: 4554.387922 0003 003a 41
E: 4554.387922 0003 001c 2
E: 4554.387922 0003 0031 74
E: 4554.387922 0003 002f 1
E: 4554.387922 0003 0035 2157
E: 4554.387922 0003 0036 1976
E: 4554.387922 0003 003a 45
E: 4554.387922 0003 001c 3
E: 4554.387922 0003 0000 1427
E: 4554.387922 0003 0018 41
E: 4554.387922 0000 0000 0
E: 4554.394749 0003 002f 0
E: 4554.394749 0003 003a 39
E: 4554.394749 0003 001c 1
E: 4554.394749 0003 0030 75
E: 4554.394749 0003 002f 1
E: 4554.394749 0003 003a 44
E: 4554.394749 0003 001c 3
E: 4554.394749 0003 0031 74
E: 4554.394749 0003 0018 39
E: 4554.394749 0000 0000 0
E: 4554.399565 0003 002f 0
E: 4554.399565 0003 003a 38
E: 4554.399565 0003 001c 1
E: 4554.399565 0003 002f 1
E: 4554.399565 0003 003a 43
E: 4554.399565 0003 0030 75
E: 4554.399565 0003 0018 38
E: 4554.399565 0000 0000 0
E: 4554.405350 0003 002f 0
E: 4554.405350 0003 0039 -1
E: 4554.405350 0003 002f 1
E: 4554.405350 0003 0039 -1
E: 4554.405350 0001 014a 0
E: 4554.405350 0001 014d 0
E: 4554.405350 0003 0018 0
E: 4554.405350 0000 0000 0
E: 4555.433748 0003 002f 0
E: 4555.433748 0003 0039 52
E: 4555.433748 0003 0035 3299
E: 4555.433748 0003 0036 443
E: 4555.433748 0003 003a 41
E: 4555.433748 0003 001c 2
E: 4555.433748 0003 0030 150
E: 4555.433748 0003 0031 148
E: 4555.433748 0001 014a 1
E: 4555.433748 0001 0145 1
E: 4555.433748 0003 0000 3299
E: 4555.433748 0003 0001 443
E: 4555.433748 0003 0018 41
E: 4555.433748 0000 0000 0
E: 4555.438505 0003 003a 42
E: 4555.438505 0003 0030 222
E: 4555.438505 0003 0031 150
E: 4555.438505 0003 0018 42
E: 4555.438505 0000 0000 0
E: 4555.443732 0003 0035 3255
E: 4555.443732 0003 0036 435
E: 4555.443732 0003 003a 45
E: 4555.443732 0003 001c 3
E: 4555.443732 0003 0030 225
E: 4555.443732 0003 0031 222
E: 4555.443732 0003 0000 3255
E: 4555.443732 0003 0001 435
E: 4555.443732 0003 0018 45
E: 4555.443732 0000 0000 0
E: 4555.448960 0003 0035 3109
E: 4555.448960 0003 0036 427
E: 4555.448960 0003 003a 49
E: 4555.448960 0003 0000 3109
E: 4555.448960 0003 0001 427
E: 4555.448960 0003 0018 49
E: 4555.448960 0000 0000 0
E: 4555.454513 0003 0035 3020
E: 4555.454513 0003 0036 418
E: 4555.454513 0003 003a 52
E: 4555.454513 0003 0000 3020
E: 4555.454513 0003 0001 418
E: 4555.454513 0003 0018 52
E: 4555.454513 0000 0000 0
E: 4555.460128 0003 0035 2966
E: 4555.460128 0003 0036 417
E: 4555.460128 0003 003a 53
E: 4555.460128 0003 0000 2966
E: 4555.460128 0003 0001 417
E: 4555.460128 0003 0018 53
E: 4555.460128 0000 0000 0
E: 4555.468386 0003 0035 2895
E: 4555.468386 0003 0036 415
E: 4555.468386 0003 001c 4
E: 4555.468386 0003 0030 300
E: 4555.468386 0003 002f 1
E: 4555.468386 0003 0039 53
E: 4555.468386 0003 0035 3297
E: 4555.468386 0003 0036 1161
E: 4555.468386 0003 001c 2
E: 4555.468386 0003 0030 222
E: 4555.468386 0003 0031 150
E: 4555.468386 0001 0145 0
E: 4555.468386 0001 014d 1
E: 4555.468386 0003 0000 2895
E: 4555.468386 0003 0001 415
E: 4555.468386 0000 0000 0
E: 4555.474852 0003 002f 0
E: 4555.474852 0003 0035 2801
E: 4555.474852 0003 0036 411
E: 4555.474852 0003 003a 54
E: 4555.474852 0003 001c 3
E: 4555.474852 0003 0030 225
E: 4555.474852 0003 002f 1
E: 4555.474852 0003 0035 3204
E: 4555.474852 0003 003a 45
E: 4555.474852 0003 001c 2
E: 4555.474852 0003 0000 2801
E: 4555.474852 0003 0001 411
E: 4555.474852 0003 0018 54
E: 4555.474852 0000 0000 0
E: 4555.480193 0003 002f 0
E: 4555.480193 0003 0035 2716
E: 4555.480193 0003 0036 400
E: 4555.480193 0003 003a 52
E: 4555.480193 0003 001c 3
E: 4555.480193 0003 002f 1
E: 4555.480193 0003 0035 3083
E: 4555.480193 0003 0036 1158
E: 4555.480193 0003 003a 46
E: 4555.480193 0003 0030 225
E: 4555.480193 0003 0031 222
E: 4555.480193 0003 0000 2716
E: 4555.480193 0003 0001 400
E: 4555.480193 0003 0018 52
E: 4555.480193 0000 0000 0
E: 4555.485797 0003 002f 0
E: 4555.485797 0003 0035 2657
E: 4555.485797 0003 0036 399
E: 4555.485797 0003 003a 53
E: 4555.485797 0003 002f 1
E: 4555.485797 0003 0035 3005
E: 4555.485797 0003 0036 1150
E: 4555.485797 0003 003a 47
E: 4555.485797 0003 0000 2657
E: 4555.485797 0003 0001 399
E: 4555.485797 0003 0018 53
E: 4555.485797 0000 0000 0
E: 4555.491777 0003 002f 0
E: 4555.491777 0003 0035 2565
E: 4555.491777 0003 0036 395
E: 4555.491777 0003 003a 54
E: 4555.491777 0003 001c 4
E: 4555.491777 0003 0030 300
E: 4555.491777 0003 002f 1
E: 4555.491777 0003 0035 2943
E: 4555.491777 0003 0036 1156
E: 4555.491777 0003 001c 3
E: 4555.491777 0003 0000 2565
E: 4555.491777 0003 0001 395
E: 4555.491777 0003 0018 54
E: 4555.491777 0000 0000 0
E: 4555.497308 0003 002f 0
E: 4555.497308 0003 0035 2482
E: 4555.497308 0003 0036 385
E: 4555.497308 0003 0030 225
E: 4555.497308 0003 002f 1
E: 4555.497308 0003 0035 2853
E: 4555.497308 0003 0036 1140
E: 4555.497308 0003 003a 48
E: 4555.497308 0003 0000 2482
E: 4555.497308 0003 0001 385
E: 4555.497308 0000 0000 0
E: 4555.503020 0003 002f 0
E: 4555.503020 0003 0035 2403
E: 4555.503020 0003 0036 373
E: 4555.503020 0003 003a 52
E: 4555.503020 0003 002f 1
E: 4555.503020 0003 0035 2786
E: 4555.503020 0003 0036 1141
E: 4555.503020 0003 003a 47
E: 4555.503020 0003 0000 2403
E: 4555.503020 0003 0001 373
E: 4555.503020 0003 0018 52
E: 4555.503020 0000 0000 0
E: 4555.508741 0003 002f 0
E: 4555.508741 0003 0035 2337
E: 4555.508741 0003 0036 369
E: 4555.508741 0003 003a 53
E: 4555.508741 0003 002f 1
E: 4555.508741 0003 0035 2698
E: 4555.508741 0003 0036 1138
E: 4555.508741 0003 003a 48
E: 4555.508741 0003 0000 2337
E: 4555.508741 0003 0001 369
E: 4555.508741 0003 0018 53
E: 4555.508741 0000 0000 0
E: 4555.516854 0003 002f 0
E: 4555.516854 0003 0035 2257
E: 4555.516854 0003 0036 361
E: 4555.516854 0003 003a 52
E: 4555.516854 0003 002f 1
E: 4555.516854 0003 0035 2644
E: 4555.516854 0003 0036 1144
E: 4555.516854 0003 003a 47
E: 4555.516854 0003 0000 2257
E: 4555.516854 0003 0001 361
E: 4555.516854 0003 0018 52
E: 4555.516854 0000 0000 0
E: 4555.522552 0003 002f 0
E: 4555.522552 0003 0035 2147
E: 4555.522552 0003 002f 1
E: 4555.522552 0003 0035 2520
E: 4555.522552 0003 0036 1138
E: 4555.522552 0003 0000 2147
E: 4555.522552 0000 0000 0
E: 4555.528292 0003 002f 0
E: 4555.528292 0003 0035 2063
E: 4555.528292 0003 0036 358
E: 4555.528292 0003 003a 53
E: 4555.528292 0003 001c 4
E: 4555.528292 0003 0030 300
E: 4555.528292 0003 002f 1
E: 4555.528292 0003 0035 2429
E: 4555.528292 0003 0036 1135
E: 4555.528292 0003 001c 3
E: 4555.528292 0003 0000 2063
E: 4555.528292 0003 0001 358
E: 4555.528292 0003 0018 53
E: 4555.528292 0000 0000 0
E: 4555.533781 0003 002f 0
E: 4555.533781 0003 0035 1991
E: 4555.533781 0003 0036 357
E: 4555.533781 0003 003a 55
E: 4555.533781 0003 0030 225
E: 4555.533781 0003 002f 1
E: 4555.533781 0003 0035 2357
E: 4555.533781 0003 0036 1138
E: 4555.533781 0003 001c 2
E: 4555.533781 0003 0030 222
E: 4555.533781 0003 0031 150
E: 4555.533781 0003 0000 1991
E: 4555.533781 0003 0001 357
E: 4555.533781 0003 0018 55
E: 4555.533781 0000 0000 0
E: 4555.539471 0003 002f 0
E: 4555.539471 0003 0035 1908
E: 4555.539471 0003 0036 355
E: 4555.539471 0003 001c 3
E: 4555.539471 0003 002f 1
E: 4555.539471 0003 0035 2292
E: 4555.539471 0003 0036 1139
E: 4555.539471 0003 0030 225
E: 4555.539471 0003 0031 222
E: 4555.539471 0003 0000 1908
E: 4555.539471 0003 0001 355
E: 4555.539471 0000 0000 0
E: 4555.545182 0003 002f 0
E: 4555.545182 0003 0035 1838
E: 4555.545182 0003 0036 353
E: 4555.545182 0003 002f 1
E: 4555.545182 0003 0035 2209
E: 4555.545182 0003 0036 1135
E: 4555.545182 0003 0000 1838
E: 4555.545182 0003 0001 353
E: 4555.545182 0000 0000 0
E: 4555.550969 0003 002f 0
E: 4555.550969 0003 0035 1739
E: 4555.550969 0003 0036 356
E: 4555.550969 0003 001c 4
E: 4555.550969 0003 0030 300
E: 4555.550969 0003 002f 1
E: 4555.550969 0003 0035 2132
E: 4555.550969 0003 0036 1138
E: 4555.550969 0003 001c 3
E: 4555.550969 0003 0000 1739
E: 4555.550969 0003 0001 356
E: 4555.550969 0000 0000 0
E: 4555.556634 0003 002f 0
E: 4555.556634 0003 0035 1661
E: 4555.556634 0003 0036 353
E: 4555.556634 0003 0030 225
E: 4555.556634 0003 002f 1
E: 4555.556634 0003 0035 2049
E: 4555.556634 0003 0036 1133
E: 4555.556634 0003 001c 2
E: 4555.556634 0003 0030 222
E: 4555.556634 0003 0031 150
E: 4555.556634 0003 0000 1661
E: 4555.556634 0003 0001 353
E: 4555.556634 0000 0000 0
E: 4555.564913 0003 002f 0
E: 4555.564913 0003 0035 1574
E: 4555.564913 0003 0036 354
E: 4555.564913 0003 003a 56
E: 4555.564913 0003 001c 4
E: 4555.564913 0003 0030 300
E: 4555.564913 0003 002f 1
E: 4555.564913 0003 0035 1978
E: 4555.564913 0003 0036 1135
E: 4555.564913 0003 003a 48
E: 4555.564913 0003 001c 3
E: 4555.564913 0003 0030 225
E: 4555.564913 0003 0031 222
E: 4555.564913 0003 0000 1574
E: 4555.564913 0003 0001 354
E: 4555.564913 0003 0018 56
E: 4555.564913 0000 0000 0
E: 4555.572351 0003 002f 0
E: 4555.572351 0003 0035 1457
E: 4555.572351 0003 0036 349
E: 4555.572351 0003 003a 55
E: 4555.572351 0003 001c 4
E: 4555.572351 0003 002f 1
E: 4555.572351 0003 0035 1871
E: 4555.572351 0003 0036 1146
E: 4555.572351 0003 001c 2
E: 4555.572351 0003 0030 222
E: 4555.572351 0003 0031 150
E: 4555.572351 0003 0000 1457
E: 4555.572351 0003 0001 349
E: 4555.572351 0003 0018 55
E: 4555.572351 0000 0000 0
E: 4555.576946 0003 002f 0
E: 4555.576946 0003 0035 1377
E: 4555.576946 0003 003a 56
E: 4555.576946 0003 001c 3
E: 4555.576946 0003 0030 225
E: 4555.576946 0003 002f 1
E: 4555.576946 0003 0035 1774
E: 4555.576946 0003 0036 1143
E: 4555.576946 0003 0030 225
E: 4555.576946 0003 0031 222
E: 4555.576946 0003 0000 1377
E: 4555.576946 0003 0018 56
E: 4555.576946 0000 0000 0
E: 4555.582821 0003 002f 0
E: 4555.582821 0003 0035 1280
E: 4555.582821 0003 0036 350
E: 4555.582821 0003 003a 55
E: 4555.582821 0003 001c 4
E: 4555.582821 0003 0030 300
E: 4555.582821 0003 002f 1
E: 4555.582821 0003 0035 1699
E: 4555.582821 0003 0036 1147
E: 4555.582821 0003 001c 3
E: 4555.582821 0003 0000 1280
E: 4555.582821 0003 0001 350
E: 4555.582821 0003 0018 55
E: 4555.582821 0000 0000 0
E: 4555.588684 0003 002f 0
E: 4555.588684 0003 0035 1211
E: 4555.588684 0003 0030 225
E: 4555.588684 0003 002f 1
E: 4555.588684 0003 0035 1598
E: 4555.588684 0003 0000 1211
E: 4555.588684 0000 0000 0
E: 4555.594960 0003 002f 0
E: 4555.594960 0003 0035 1101
E: 4555.594960 0003 0036 358
E: 4555.594960 0003 003a 56
E: 4555.594960 0003 001c 4
E: 4555.594960 0003 0030 300
E: 4555.594960 0003 002f 1
E: 4555.594960 0003 0035 1522
E: 4555.594960 0003 0036 1145
E: 4555.594960 0003 001c 3
E: 4555.594960 0003 0000 1101
E: 4555.594960 0003 0001 358
E: 4555.594960 0003 0018 56
E: 4555.594960 0000 0000 0
E: 4555.599703 0003 002f 0
E: 4555.599703 0003 0035 1014
E: 4555.599703 0003 0036 359
E: 4555.599703 0003 003a 55
E: 4555.599703 0003 0030 296
E: 4555.599703 0003 0031 225
E: 4555.599703 0003 002f 1
E: 4555.599703 0003 0035 1429
E: 4555.599703 0003 0036 1149
E: 4555.599703 0003 003a 49
E: 4555.599703 0003 0000 1014
E: 4555.599703 0003 0001 359
E: 4555.599703 0003 0018 55
E: 4555.599703 0000 0000 0
E: 4555.605567 0003 002f 0
E: 4555.605567 0003 0035 921
E: 4555.605567 0003 0036 367
E: 4555.605567 0003 003a 56
E: 4555.605567 0003 0030 225
E: 4555.605567 0003 0031 222
E: 4555.605567 0003 002f 1
E: 4555.605567 0003 0035 1326
E: 4555.605567 0003 0036 1157
E: 4555.605567 0003 0000 921
E: 4555.605567 0003 0001 367
E: 4555.605567 0003 0018 56
E: 4555.605567 0000 0000 0
E: 4555.613844 0003 002f 0
E: 4555.613844 0003 0035 818
E: 4555.613844 0003 0036 371
E: 4555.613844 0003 003a 54
E: 4555.613844 0003 001c 4
E: 4555.613844 0003 0030 300
E: 4555.613844 0003 002f 1
E: 4555.613844 0003 0035 1246
E: 4555.613844 0003 0036 1160
E: 4555.613844 0003 001c 2
E: 4555.613844 0003 0030 222
E: 4555.613844 0003 0031 150
E: 4555.613844 0003 0000 818
E: 4555.613844 0003 0001 371
E: 4555.613844 0003 0018 54
E: 4555.613844 0000 0000 0
E: 4555.619478 0003 002f 0
E: 4555.619478 0003 0035 697
E: 4555.619478 0003 0036 372
E: 4555.619478 0003 001c 3
E: 4555.619478 0003 0030 225
E: 4555.619478 0003 002f 1
E: 4555.619478 0003 0035 1114
E: 4555.619478 0003 0036 1166
E: 4555.619478 0003 003a 50
E: 4555.619478 0003 0030 225
E: 4555.619478 0003 0031 222
E: 4555.619478 0003 0000 697
E: 4555.619478 0003 0001 372
E: 4555.619478 0000 0000 0
E: 4555.625187 0003 002f 0
E: 4555.625187 0003 0035 606
E: 4555.625187 0003 0036 377
E: 4555.625187 0003 003a 56
E: 4555.625187 0003 002f 1
E: 4555.625187 0003 0035 1021
E: 4555.625187 0003 0036 1172
E: 4555.625187 0003 003a 48
E: 4555.625187 0003 0000 606
E: 4555.625187 0003 0001 377
E: 4555.625187 0003 0018 56
E: 4555.625187 0000 0000 0
E: 4555.631962 0003 002f 0
E: 4555.631962 0003 0035 521
E: 4555.631962 0003 0036 380
E: 4555.631962 0003 003a 55
E: 4555.631962 0003 002f 1
E: 4555.631962 0003 0035 948
E: 4555.631962 0003 0036 1178
E: 4555.631962 0003 003a 49
E: 4555.631962 0003 0000 521
E: 4555.631962 0003 0001 380
E: 4555.631962 0003 0018 55
E: 4555.631962 0000 0000 0
E: 4555.636860 0003 002f 0
E: 4555.636860 0003 0035 425
E: 4555.636860 0003 0036 381
E: 4555.636860 0003 002f 1
E: 4555.636860 0003 0035 853
E: 4555.636860 0003 0036 1186
E: 4555.636860 0003 003a 48
E: 4555.636860 0003 0000 425
E: 4555.636860 0003 0001 381
E: 4555.636860 0000 0000 0
E: 4555.642610 0003 002f 0
E: 4555.642610 0003 0035 341
E: 4555.642610 0003 003a 53
E: 4555.642610 0003 002f 1
E: 4555.642610 0003 0035 763
E: 4555.642610 0003 0036 1188
E: 4555.642610 0003 003a 47
E: 4555.642610 0003 0000 341
E: 4555.642610 0003 0018 53
E: 4555.642610 0000 0000 0
E: 4555.648080 0003 002f 0
E: 4555.648080 0003 0035 259
E: 4555.648080 0003 0036 391
E: 4555.648080 0003 003a 54
E: 4555.648080 0003 0030 296
E: 4555.648080 0003 0031 225
E: 4555.648080 0003 002f 1
E: 4555.648080 0003 0035 666
E: 4555.648080 0003 0036 1194
E: 4555.648080 0003 0000 259
E: 4555.648080 0003 0001 391
E: 4555.648080 0003 0018 54
E: 4555.648080 0000 0000 0
E: 4555.653406 0003 002f 0
E: 4555.653406 0003 0035 172
E: 4555.653406 0003 0036 386
E: 4555.653406 0003 0030 225
E: 4555.653406 0003 0031 222
E: 4555.653406 0003 002f 1
E: 4555.653406 0003 0035 592
E: 4555.653406 0003 0000 172
E: 4555.653406 0003 0001 386
E: 4555.653406 0000 0000 0
E: 4555.661283 0003 002f 0
E: 4555.661283 0003 0035 58
E: 4555.661283 0003 0036 394
E: 4555.661283 0003 003a 52
E: 4555.661283 0003 001c 2
E: 4555.661283 0003 0030 296
E: 4555.661283 0003 0031 150
E: 4555.661283 0003 002f 1
E: 4555.661283 0003 0035 501
E: 4555.661283 0003 0036 1206
E: 4555.661283 0003 001c 3
E: 4555.661283 0003 0031 148
E: 4555.661283 0003 0000 58
E: 4555.661283 0003 0001 394
E: 4555.661283 0003 0018 52
E: 4555.661283 0000 0000 0
E: 4555.666814 0003 002f 0
E: 4555.666814 0003 0035 0
E: 4555.666814 0003 0036 398
E: 4555.666814 0003 003a 45
E: 4555.666814 0003 001c 1
E: 4555.666814 0003 0030 222
E: 4555.666814 0003 0031 75
E: 4555.666814 0003 002f 1
E: 4555.666814 0003 0035 377
E: 4555.666814 0003 0036 1199
E: 4555.666814 0003 001c 3
E: 4555.666814 0003 0031 222
E: 4555.666814 0003 0000 0
E: 4555.666814 0003 0001 398
E: 4555.666814 0003 0018 45
E: 4555.666814 0000 0000 0
E: 4555.671724 0003 002f 0
E: 4555.671724 0003 003a 42
E: 4555.671724 0003 001c 1
E: 4555.671724 0003 0030 75
E: 4555.671724 0003 0031 74
E: 4555.671724 0003 002f 1
E: 4555.671724 0003 0035 253
E: 4555.671724 0003 0036 1192
E: 4555.671724 0003 001c 2
E: 4555.671724 0003 0030 150
E: 4555.671724 0003 0031 148
E: 4555.671724 0003 0018 42
E: 4555.671724 0000 0000 0
E: 4555.676489 0003 002f 0
E: 4555.676489 0003 003a 40
E: 4555.676489 0003 001c 1
E: 4555.676489 0003 002f 1
E: 4555.676489 0003 0035 222
E: 4555.676489 0003 0036 1207
E: 4555.676489 0003 001c 3
E: 4555.676489 0003 0030 225
E: 4555.676489 0003 0018 40
E: 4555.676489 0000 0000 0
E: 4555.681746 0003 002f 0
E: 4555.681746 0003 0039 -1
E: 4555.681746 0003 002f 1
E: 4555.681746 0003 0035 157
E: 4555.681746 0003 0036 1217
E: 4555.681746 0003 003a 48
E: 4555.681746 0001 0145 1
E: 4555.681746 0001 014d 0
E: 4555.681746 0003 0000 157
E: 4555.681746 0003 0001 1217
E: 4555.681746 0003 0018 48
E: 4555.681746 0000 0000 0
E: 4555.687594 0003 0035 49
E: 4555.687594 0003 0036 1220
E: 4555.687594 0003 003a 46
E: 4555.687594 0003 001c 2
E: 4555.687594 0003 0030 150
E: 4555.687594 0003 0000 49
E: 4555.687594 0003 0001 1220
E: 4555.687594 0003 0018 46
E: 4555.687594 0000 0000 0
E: 4555.693849 0003 0035 0
E: 4555.693849 0003 0036 1231
E: 4555.693849 0003 003a 43
E: 4555.693849 0003 0000 0
E: 4555.693849 0003 0001 1231
E: 4555.693849 0003 0018 43
E: 4555.693849 0000 0000 0
E: 4555.699997 0003 003a 42
E: 4555.699997 0003 001c 1
E: 4555.699997 0003 0030 75
E: 4555.699997 0003 0031 74
E: 4555.699997 0003 0018 42
E: 4555.699997 0000 0000 0
E: 4555.705360 0003 0039 -1
E: 4555.705360 0001 014a 0
E: 4555.705360 0001 0145 0
E: 4555.705360 0003 0018 0
E: 4555.705360 0000 0000 0
E: 4555.705860 0003 002f 0
E: 4555.705860 0003 0039 -1
E: 4555.705860 0003 002f 1
E: 4555.705860 0003 0039 -1
E: 4555.705860 0003 002f 2
E: 4555.705860 0003 0039 -1
E: 4555.705860 0003 002f 3
E: 4555.705860 0003 0039 -1
E: 4555.705860 0003 002f 4
E: 4555.705860 0003 0039 -1
